(kicad_symbol_lib
	(version 20231120)
	(generator "kicad_symbol_editor")
	(generator_version "8.0")
	(symbol "A2C25S12M3"
		(exclude_from_sim no)
		(in_bom yes)
		(on_board yes)
		(property "Reference" "U"
			(at 0 30.48 0)
			(effects
				(font
					(size 1.27 1.27)
				)
			)
		)
		(property "Value" "A2C25S12M3"
			(at 0 27.94 0)
			(effects
				(font
					(size 1.27 1.27)
				)
			)
		)
		(property "Footprint" "Transistor_Power_Module:ST_ACEPACK-2-CIB"
			(at 0 -27.94 0)
			(effects
				(font
					(size 1.27 1.27)
				)
				(hide yes)
			)
		)
		(property "Datasheet" "https://www.st.com/resource/en/datasheet/a2c25s12m3.pdf"
			(at 0 -30.48 0)
			(effects
				(font
					(size 1.27 1.27)
				)
				(hide yes)
			)
		)
		(property "Description" "25A, 1200V, 20kHz, 197W x 6 , 3-phase, Freewheeling Diode, Brake Chopper, Diode Rectifier, 5k NTC, ACEPACK-2-CIB"
			(at 0 0 0)
			(effects
				(font
					(size 1.27 1.27)
				)
				(hide yes)
			)
		)
		(property "ki_keywords" "IGBT Power Module Trench Field Stop Technology M series"
			(at 0 0 0)
			(effects
				(font
					(size 1.27 1.27)
				)
				(hide yes)
			)
		)
		(property "ki_fp_filters" "ST*ACEPACK*2*CIB*"
			(at 0 0 0)
			(effects
				(font
					(size 1.27 1.27)
				)
				(hide yes)
			)
		)
		(symbol "A2C25S12M3_1_1"
			(rectangle
				(start -10.16 25.4)
				(end 10.16 -25.4)
				(stroke
					(width 0.254)
					(type default)
				)
				(fill
					(type background)
				)
			)
			(pin passive line
				(at 12.7 7.62 180)
				(length 2.54)
				(name "B"
					(effects
						(font
							(size 1.27 1.27)
						)
					)
				)
				(number "B"
					(effects
						(font
							(size 1.27 1.27)
						)
					)
				)
			)
			(pin passive line
				(at 12.7 -7.62 180)
				(length 2.54)
				(name "EU"
					(effects
						(font
							(size 1.27 1.27)
						)
					)
				)
				(number "EU"
					(effects
						(font
							(size 1.27 1.27)
						)
					)
				)
			)
			(pin passive line
				(at 12.7 -10.16 180)
				(length 2.54)
				(name "EV"
					(effects
						(font
							(size 1.27 1.27)
						)
					)
				)
				(number "EV"
					(effects
						(font
							(size 1.27 1.27)
						)
					)
				)
			)
			(pin passive line
				(at 12.7 -12.7 180)
				(length 2.54)
				(name "EW"
					(effects
						(font
							(size 1.27 1.27)
						)
					)
				)
				(number "EW"
					(effects
						(font
							(size 1.27 1.27)
						)
					)
				)
			)
			(pin passive line
				(at -12.7 10.16 0)
				(length 2.54)
				(name "G1"
					(effects
						(font
							(size 1.27 1.27)
						)
					)
				)
				(number "G1"
					(effects
						(font
							(size 1.27 1.27)
						)
					)
				)
			)
			(pin passive line
				(at -12.7 5.08 0)
				(length 2.54)
				(name "G2"
					(effects
						(font
							(size 1.27 1.27)
						)
					)
				)
				(number "G2"
					(effects
						(font
							(size 1.27 1.27)
						)
					)
				)
			)
			(pin passive line
				(at -12.7 0 0)
				(length 2.54)
				(name "G3"
					(effects
						(font
							(size 1.27 1.27)
						)
					)
				)
				(number "G3"
					(effects
						(font
							(size 1.27 1.27)
						)
					)
				)
			)
			(pin passive line
				(at -12.7 -5.08 0)
				(length 2.54)
				(name "G4"
					(effects
						(font
							(size 1.27 1.27)
						)
					)
				)
				(number "G4"
					(effects
						(font
							(size 1.27 1.27)
						)
					)
				)
			)
			(pin passive line
				(at -12.7 -10.16 0)
				(length 2.54)
				(name "G5"
					(effects
						(font
							(size 1.27 1.27)
						)
					)
				)
				(number "G5"
					(effects
						(font
							(size 1.27 1.27)
						)
					)
				)
			)
			(pin passive line
				(at -12.7 -15.24 0)
				(length 2.54)
				(name "G6"
					(effects
						(font
							(size 1.27 1.27)
						)
					)
				)
				(number "G6"
					(effects
						(font
							(size 1.27 1.27)
						)
					)
				)
			)
			(pin passive line
				(at -12.7 -20.32 0)
				(length 2.54)
				(name "GB"
					(effects
						(font
							(size 1.27 1.27)
						)
					)
				)
				(number "GB"
					(effects
						(font
							(size 1.27 1.27)
						)
					)
				)
			)
			(pin passive line
				(at -12.7 22.86 0)
				(length 2.54)
				(name "L1"
					(effects
						(font
							(size 1.27 1.27)
						)
					)
				)
				(number "L1"
					(effects
						(font
							(size 1.27 1.27)
						)
					)
				)
			)
			(pin passive line
				(at -12.7 20.32 0)
				(length 2.54)
				(name "L2"
					(effects
						(font
							(size 1.27 1.27)
						)
					)
				)
				(number "L2"
					(effects
						(font
							(size 1.27 1.27)
						)
					)
				)
			)
			(pin passive line
				(at -12.7 17.78 0)
				(length 2.54)
				(name "L3"
					(effects
						(font
							(size 1.27 1.27)
						)
					)
				)
				(number "L3"
					(effects
						(font
							(size 1.27 1.27)
						)
					)
				)
			)
			(pin passive line
				(at 12.7 20.32 180)
				(length 2.54)
				(name "N"
					(effects
						(font
							(size 1.27 1.27)
						)
					)
				)
				(number "N"
					(effects
						(font
							(size 1.27 1.27)
						)
					)
				)
			)
			(pin passive line
				(at 12.7 -15.24 180)
				(length 2.54)
				(name "NB"
					(effects
						(font
							(size 1.27 1.27)
						)
					)
				)
				(number "NB"
					(effects
						(font
							(size 1.27 1.27)
						)
					)
				)
			)
			(pin passive line
				(at 12.7 22.86 180)
				(length 2.54)
				(name "P"
					(effects
						(font
							(size 1.27 1.27)
						)
					)
				)
				(number "P"
					(effects
						(font
							(size 1.27 1.27)
						)
					)
				)
			)
			(pin passive line
				(at 12.7 15.24 180)
				(length 2.54)
				(name "P1"
					(effects
						(font
							(size 1.27 1.27)
						)
					)
				)
				(number "P1"
					(effects
						(font
							(size 1.27 1.27)
						)
					)
				)
			)
			(pin passive line
				(at 12.7 -22.86 180)
				(length 2.54)
				(name "T1"
					(effects
						(font
							(size 1.27 1.27)
						)
					)
				)
				(number "T1"
					(effects
						(font
							(size 1.27 1.27)
						)
					)
				)
			)
			(pin passive line
				(at 12.7 -20.32 180)
				(length 2.54)
				(name "T2"
					(effects
						(font
							(size 1.27 1.27)
						)
					)
				)
				(number "T2"
					(effects
						(font
							(size 1.27 1.27)
						)
					)
				)
			)
			(pin passive line
				(at 12.7 2.54 180)
				(length 2.54)
				(name "U"
					(effects
						(font
							(size 1.27 1.27)
						)
					)
				)
				(number "U"
					(effects
						(font
							(size 1.27 1.27)
						)
					)
				)
			)
			(pin passive line
				(at 12.7 0 180)
				(length 2.54)
				(name "V"
					(effects
						(font
							(size 1.27 1.27)
						)
					)
				)
				(number "V"
					(effects
						(font
							(size 1.27 1.27)
						)
					)
				)
			)
			(pin passive line
				(at 12.7 -2.54 180)
				(length 2.54)
				(name "W"
					(effects
						(font
							(size 1.27 1.27)
						)
					)
				)
				(number "W"
					(effects
						(font
							(size 1.27 1.27)
						)
					)
				)
			)
		)
	)
	(symbol "FS75R07N2E4"
		(exclude_from_sim no)
		(in_bom yes)
		(on_board yes)
		(property "Reference" "U"
			(at 0 25.4 0)
			(effects
				(font
					(size 1.27 1.27)
				)
			)
		)
		(property "Value" "FS75R07N2E4"
			(at 0 22.86 0)
			(effects
				(font
					(size 1.27 1.27)
				)
			)
		)
		(property "Footprint" "Transistor_Power_Module:Infineon_AG-ECONO2"
			(at 0 -27.94 0)
			(effects
				(font
					(size 1.27 1.27)
				)
				(hide yes)
			)
		)
		(property "Datasheet" "https://www.infineon.com/dgdl/Infineon-FS75R07N2E4-DS-v02_00-en_de.pdf?fileId=db3a30432f5008fe012f52f916333979"
			(at 0 -30.48 0)
			(effects
				(font
					(size 1.27 1.27)
				)
				(hide yes)
			)
		)
		(property "Description" "75A, 650V, 250W , 3-phase, Freewheeling Diode, 5k NTC, AG-Econo2"
			(at 0 0 0)
			(effects
				(font
					(size 1.27 1.27)
				)
				(hide yes)
			)
		)
		(property "ki_keywords" "IGBT Power Module Trench Field Stop Technology"
			(at 0 0 0)
			(effects
				(font
					(size 1.27 1.27)
				)
				(hide yes)
			)
		)
		(property "ki_fp_filters" "*Infineon*AG*ECONO2*"
			(at 0 0 0)
			(effects
				(font
					(size 1.27 1.27)
				)
				(hide yes)
			)
		)
		(symbol "FS75R07N2E4_0_0"
			(pin passive line
				(at 12.7 12.7 180)
				(length 2.54)
				(name "N1"
					(effects
						(font
							(size 1.27 1.27)
						)
					)
				)
				(number "13"
					(effects
						(font
							(size 1.27 1.27)
						)
					)
				)
			)
			(pin passive line
				(at 12.7 12.7 180)
				(length 2.54) hide
				(name "N1"
					(effects
						(font
							(size 1.27 1.27)
						)
					)
				)
				(number "14"
					(effects
						(font
							(size 1.27 1.27)
						)
					)
				)
			)
			(pin passive line
				(at 12.7 15.24 180)
				(length 2.54)
				(name "P1"
					(effects
						(font
							(size 1.27 1.27)
						)
					)
				)
				(number "15"
					(effects
						(font
							(size 1.27 1.27)
						)
					)
				)
			)
			(pin passive line
				(at 12.7 15.24 180)
				(length 2.54) hide
				(name "P1"
					(effects
						(font
							(size 1.27 1.27)
						)
					)
				)
				(number "16"
					(effects
						(font
							(size 1.27 1.27)
						)
					)
				)
			)
			(pin passive line
				(at 12.7 -22.86 180)
				(length 2.54)
				(name "T1"
					(effects
						(font
							(size 1.27 1.27)
						)
					)
				)
				(number "17"
					(effects
						(font
							(size 1.27 1.27)
						)
					)
				)
			)
			(pin passive line
				(at 12.7 -20.32 180)
				(length 2.54)
				(name "T2"
					(effects
						(font
							(size 1.27 1.27)
						)
					)
				)
				(number "18"
					(effects
						(font
							(size 1.27 1.27)
						)
					)
				)
			)
			(pin passive line
				(at 12.7 -2.54 180)
				(length 2.54)
				(name "W"
					(effects
						(font
							(size 1.27 1.27)
						)
					)
				)
				(number "19"
					(effects
						(font
							(size 1.27 1.27)
						)
					)
				)
			)
			(pin passive line
				(at 12.7 -2.54 180)
				(length 2.54) hide
				(name "W"
					(effects
						(font
							(size 1.27 1.27)
						)
					)
				)
				(number "20"
					(effects
						(font
							(size 1.27 1.27)
						)
					)
				)
			)
			(pin passive line
				(at 12.7 0 180)
				(length 2.54)
				(name "V"
					(effects
						(font
							(size 1.27 1.27)
						)
					)
				)
				(number "21"
					(effects
						(font
							(size 1.27 1.27)
						)
					)
				)
			)
			(pin passive line
				(at 12.7 0 180)
				(length 2.54) hide
				(name "V"
					(effects
						(font
							(size 1.27 1.27)
						)
					)
				)
				(number "22"
					(effects
						(font
							(size 1.27 1.27)
						)
					)
				)
			)
			(pin passive line
				(at 12.7 2.54 180)
				(length 2.54)
				(name "U"
					(effects
						(font
							(size 1.27 1.27)
						)
					)
				)
				(number "23"
					(effects
						(font
							(size 1.27 1.27)
						)
					)
				)
			)
			(pin passive line
				(at 12.7 2.54 180)
				(length 2.54) hide
				(name "U"
					(effects
						(font
							(size 1.27 1.27)
						)
					)
				)
				(number "24"
					(effects
						(font
							(size 1.27 1.27)
						)
					)
				)
			)
			(pin passive line
				(at 12.7 15.24 180)
				(length 2.54) hide
				(name "P1"
					(effects
						(font
							(size 1.27 1.27)
						)
					)
				)
				(number "25"
					(effects
						(font
							(size 1.27 1.27)
						)
					)
				)
			)
			(pin passive line
				(at 12.7 15.24 180)
				(length 2.54) hide
				(name "P1"
					(effects
						(font
							(size 1.27 1.27)
						)
					)
				)
				(number "26"
					(effects
						(font
							(size 1.27 1.27)
						)
					)
				)
			)
			(pin passive line
				(at 12.7 12.7 180)
				(length 2.54) hide
				(name "N1"
					(effects
						(font
							(size 1.27 1.27)
						)
					)
				)
				(number "27"
					(effects
						(font
							(size 1.27 1.27)
						)
					)
				)
			)
			(pin passive line
				(at 12.7 12.7 180)
				(length 2.54) hide
				(name "N1"
					(effects
						(font
							(size 1.27 1.27)
						)
					)
				)
				(number "28"
					(effects
						(font
							(size 1.27 1.27)
						)
					)
				)
			)
		)
		(symbol "FS75R07N2E4_1_1"
			(rectangle
				(start -10.16 20.32)
				(end 10.16 -25.4)
				(stroke
					(width 0.254)
					(type default)
				)
				(fill
					(type background)
				)
			)
			(pin passive line
				(at -12.7 10.16 0)
				(length 2.54)
				(name "G1"
					(effects
						(font
							(size 1.27 1.27)
						)
					)
				)
				(number "1"
					(effects
						(font
							(size 1.27 1.27)
						)
					)
				)
			)
			(pin passive line
				(at -12.7 -12.7 0)
				(length 2.54)
				(name "W"
					(effects
						(font
							(size 1.27 1.27)
						)
					)
				)
				(number "10"
					(effects
						(font
							(size 1.27 1.27)
						)
					)
				)
			)
			(pin passive line
				(at -12.7 -15.24 0)
				(length 2.54)
				(name "G6"
					(effects
						(font
							(size 1.27 1.27)
						)
					)
				)
				(number "11"
					(effects
						(font
							(size 1.27 1.27)
						)
					)
				)
			)
			(pin passive line
				(at -12.7 -22.86 0)
				(length 2.54) hide
				(name "N1"
					(effects
						(font
							(size 1.27 1.27)
						)
					)
				)
				(number "12"
					(effects
						(font
							(size 1.27 1.27)
						)
					)
				)
			)
			(pin passive line
				(at -12.7 7.62 0)
				(length 2.54)
				(name "U"
					(effects
						(font
							(size 1.27 1.27)
						)
					)
				)
				(number "2"
					(effects
						(font
							(size 1.27 1.27)
						)
					)
				)
			)
			(pin passive line
				(at -12.7 5.08 0)
				(length 2.54)
				(name "G2"
					(effects
						(font
							(size 1.27 1.27)
						)
					)
				)
				(number "3"
					(effects
						(font
							(size 1.27 1.27)
						)
					)
				)
			)
			(pin passive line
				(at -12.7 -22.86 0)
				(length 2.54)
				(name "N1"
					(effects
						(font
							(size 1.27 1.27)
						)
					)
				)
				(number "4"
					(effects
						(font
							(size 1.27 1.27)
						)
					)
				)
			)
			(pin passive line
				(at -12.7 0 0)
				(length 2.54)
				(name "G3"
					(effects
						(font
							(size 1.27 1.27)
						)
					)
				)
				(number "5"
					(effects
						(font
							(size 1.27 1.27)
						)
					)
				)
			)
			(pin passive line
				(at -12.7 -2.54 0)
				(length 2.54)
				(name "V"
					(effects
						(font
							(size 1.27 1.27)
						)
					)
				)
				(number "6"
					(effects
						(font
							(size 1.27 1.27)
						)
					)
				)
			)
			(pin passive line
				(at -12.7 -5.08 0)
				(length 2.54)
				(name "G4"
					(effects
						(font
							(size 1.27 1.27)
						)
					)
				)
				(number "7"
					(effects
						(font
							(size 1.27 1.27)
						)
					)
				)
			)
			(pin passive line
				(at -12.7 -22.86 0)
				(length 2.54) hide
				(name "N1"
					(effects
						(font
							(size 1.27 1.27)
						)
					)
				)
				(number "8"
					(effects
						(font
							(size 1.27 1.27)
						)
					)
				)
			)
			(pin passive line
				(at -12.7 -10.16 0)
				(length 2.54)
				(name "G5"
					(effects
						(font
							(size 1.27 1.27)
						)
					)
				)
				(number "9"
					(effects
						(font
							(size 1.27 1.27)
						)
					)
				)
			)
		)
	)
	(symbol "MG1215H-XBN2MM"
		(exclude_from_sim no)
		(in_bom yes)
		(on_board yes)
		(property "Reference" "U"
			(at 0 30.48 0)
			(effects
				(font
					(size 1.27 1.27)
				)
			)
		)
		(property "Value" "MG1215H-XBN2MM"
			(at 0 27.94 0)
			(effects
				(font
					(size 1.27 1.27)
				)
			)
		)
		(property "Footprint" "Transistor_Power_Module:Littelfuse_Package_H_XBN2MM"
			(at 0 -27.94 0)
			(effects
				(font
					(size 1.27 1.27)
				)
				(hide yes)
			)
		)
		(property "Datasheet" "https://www.littelfuse.com/~/media/electronics/datasheets/power_semiconductors/littelfuse_power_semiconductor_igbt_module_mg1215h_xbn2mm_datasheet.pdf.pdf"
			(at 0 -30.48 0)
			(effects
				(font
					(size 1.27 1.27)
				)
				(hide yes)
			)
		)
		(property "Description" "15A, 1200V, 105W x 6 , 3-phase, Freewheeling Diode, Brake Chopper, Diode Rectifier, 5k NTC, Package-H (XBN2MM)"
			(at 0 0 0)
			(effects
				(font
					(size 1.27 1.27)
				)
				(hide yes)
			)
		)
		(property "ki_keywords" "IGBT Power Module Trench Field Stop Technology"
			(at 0 0 0)
			(effects
				(font
					(size 1.27 1.27)
				)
				(hide yes)
			)
		)
		(property "ki_fp_filters" "Littelfuse*Package*H*XBN2MM*"
			(at 0 0 0)
			(effects
				(font
					(size 1.27 1.27)
				)
				(hide yes)
			)
		)
		(symbol "MG1215H-XBN2MM_1_1"
			(rectangle
				(start -10.16 25.4)
				(end 10.16 -25.4)
				(stroke
					(width 0.254)
					(type default)
				)
				(fill
					(type background)
				)
			)
			(pin passive line
				(at -12.7 22.86 0)
				(length 2.54)
				(name "L1"
					(effects
						(font
							(size 1.27 1.27)
						)
					)
				)
				(number "1"
					(effects
						(font
							(size 1.27 1.27)
						)
					)
				)
			)
			(pin passive line
				(at -12.7 -22.86 0)
				(length 2.54)
				(name "N1"
					(effects
						(font
							(size 1.27 1.27)
						)
					)
				)
				(number "10"
					(effects
						(font
							(size 1.27 1.27)
						)
					)
				)
			)
			(pin passive line
				(at -12.7 -15.24 0)
				(length 2.54)
				(name "G6"
					(effects
						(font
							(size 1.27 1.27)
						)
					)
				)
				(number "11"
					(effects
						(font
							(size 1.27 1.27)
						)
					)
				)
			)
			(pin passive line
				(at -12.7 -5.08 0)
				(length 2.54)
				(name "G4"
					(effects
						(font
							(size 1.27 1.27)
						)
					)
				)
				(number "12"
					(effects
						(font
							(size 1.27 1.27)
						)
					)
				)
			)
			(pin passive line
				(at -12.7 5.08 0)
				(length 2.54)
				(name "G2"
					(effects
						(font
							(size 1.27 1.27)
						)
					)
				)
				(number "13"
					(effects
						(font
							(size 1.27 1.27)
						)
					)
				)
			)
			(pin passive line
				(at -12.7 -20.32 0)
				(length 2.54)
				(name "GB"
					(effects
						(font
							(size 1.27 1.27)
						)
					)
				)
				(number "14"
					(effects
						(font
							(size 1.27 1.27)
						)
					)
				)
			)
			(pin passive line
				(at -12.7 -12.7 0)
				(length 2.54)
				(name "W"
					(effects
						(font
							(size 1.27 1.27)
						)
					)
				)
				(number "15"
					(effects
						(font
							(size 1.27 1.27)
						)
					)
				)
			)
			(pin passive line
				(at -12.7 -10.16 0)
				(length 2.54)
				(name "G5"
					(effects
						(font
							(size 1.27 1.27)
						)
					)
				)
				(number "16"
					(effects
						(font
							(size 1.27 1.27)
						)
					)
				)
			)
			(pin passive line
				(at -12.7 -2.54 0)
				(length 2.54)
				(name "V"
					(effects
						(font
							(size 1.27 1.27)
						)
					)
				)
				(number "17"
					(effects
						(font
							(size 1.27 1.27)
						)
					)
				)
			)
			(pin passive line
				(at -12.7 0 0)
				(length 2.54)
				(name "G3"
					(effects
						(font
							(size 1.27 1.27)
						)
					)
				)
				(number "18"
					(effects
						(font
							(size 1.27 1.27)
						)
					)
				)
			)
			(pin passive line
				(at -12.7 7.62 0)
				(length 2.54)
				(name "U"
					(effects
						(font
							(size 1.27 1.27)
						)
					)
				)
				(number "19"
					(effects
						(font
							(size 1.27 1.27)
						)
					)
				)
			)
			(pin passive line
				(at -12.7 20.32 0)
				(length 2.54)
				(name "L2"
					(effects
						(font
							(size 1.27 1.27)
						)
					)
				)
				(number "2"
					(effects
						(font
							(size 1.27 1.27)
						)
					)
				)
			)
			(pin passive line
				(at -12.7 10.16 0)
				(length 2.54)
				(name "G1"
					(effects
						(font
							(size 1.27 1.27)
						)
					)
				)
				(number "20"
					(effects
						(font
							(size 1.27 1.27)
						)
					)
				)
			)
			(pin passive line
				(at 12.7 22.86 180)
				(length 2.54)
				(name "P"
					(effects
						(font
							(size 1.27 1.27)
						)
					)
				)
				(number "21"
					(effects
						(font
							(size 1.27 1.27)
						)
					)
				)
			)
			(pin passive line
				(at 12.7 15.24 180)
				(length 2.54)
				(name "P1"
					(effects
						(font
							(size 1.27 1.27)
						)
					)
				)
				(number "22"
					(effects
						(font
							(size 1.27 1.27)
						)
					)
				)
			)
			(pin passive line
				(at 12.7 20.32 180)
				(length 2.54)
				(name "N"
					(effects
						(font
							(size 1.27 1.27)
						)
					)
				)
				(number "23"
					(effects
						(font
							(size 1.27 1.27)
						)
					)
				)
			)
			(pin passive line
				(at 12.7 12.7 180)
				(length 2.54)
				(name "N1"
					(effects
						(font
							(size 1.27 1.27)
						)
					)
				)
				(number "24"
					(effects
						(font
							(size 1.27 1.27)
						)
					)
				)
			)
			(pin passive line
				(at -12.7 17.78 0)
				(length 2.54)
				(name "L3"
					(effects
						(font
							(size 1.27 1.27)
						)
					)
				)
				(number "3"
					(effects
						(font
							(size 1.27 1.27)
						)
					)
				)
			)
			(pin passive line
				(at 12.7 2.54 180)
				(length 2.54)
				(name "U"
					(effects
						(font
							(size 1.27 1.27)
						)
					)
				)
				(number "4"
					(effects
						(font
							(size 1.27 1.27)
						)
					)
				)
			)
			(pin passive line
				(at 12.7 0 180)
				(length 2.54)
				(name "V"
					(effects
						(font
							(size 1.27 1.27)
						)
					)
				)
				(number "5"
					(effects
						(font
							(size 1.27 1.27)
						)
					)
				)
			)
			(pin passive line
				(at 12.7 -2.54 180)
				(length 2.54)
				(name "W"
					(effects
						(font
							(size 1.27 1.27)
						)
					)
				)
				(number "6"
					(effects
						(font
							(size 1.27 1.27)
						)
					)
				)
			)
			(pin passive line
				(at 12.7 7.62 180)
				(length 2.54)
				(name "B"
					(effects
						(font
							(size 1.27 1.27)
						)
					)
				)
				(number "7"
					(effects
						(font
							(size 1.27 1.27)
						)
					)
				)
			)
			(pin passive line
				(at 12.7 -22.86 180)
				(length 2.54)
				(name "T1"
					(effects
						(font
							(size 1.27 1.27)
						)
					)
				)
				(number "8"
					(effects
						(font
							(size 1.27 1.27)
						)
					)
				)
			)
			(pin passive line
				(at 12.7 -20.32 180)
				(length 2.54)
				(name "T2"
					(effects
						(font
							(size 1.27 1.27)
						)
					)
				)
				(number "9"
					(effects
						(font
							(size 1.27 1.27)
						)
					)
				)
			)
		)
	)
	(symbol "MG1275W-XN2MM"
		(exclude_from_sim no)
		(in_bom yes)
		(on_board yes)
		(property "Reference" "U"
			(at 0 27.94 0)
			(effects
				(font
					(size 1.27 1.27)
				)
			)
		)
		(property "Value" "MG1275W-XN2MM"
			(at 0 25.4 0)
			(effects
				(font
					(size 1.27 1.27)
				)
			)
		)
		(property "Footprint" "Transistor_Power_Module:Littelfuse_Package_W_XN2MM"
			(at 0 -25.4 0)
			(effects
				(font
					(size 1.27 1.27)
				)
				(hide yes)
			)
		)
		(property "Datasheet" "https://www.littelfuse.com/~/media/electronics/datasheets/power_semiconductors/littelfuse_power_semiconductor_igbt_module_mg1275w_xn2mm_datasheet.pdf.pdf"
			(at 0 -27.94 0)
			(effects
				(font
					(size 1.27 1.27)
				)
				(hide yes)
			)
		)
		(property "Description" "75A, 1200V, 368W x 6 , 3-phase, Freewheeling Diode, 5k NTC, Package-W (XN2MM)"
			(at 0 0 0)
			(effects
				(font
					(size 1.27 1.27)
				)
				(hide yes)
			)
		)
		(property "ki_keywords" "IGBT Power Module Trench Field Stop Technology"
			(at 0 0 0)
			(effects
				(font
					(size 1.27 1.27)
				)
				(hide yes)
			)
		)
		(property "ki_fp_filters" "Littelfuse*Package*W*XN2MM*"
			(at 0 0 0)
			(effects
				(font
					(size 1.27 1.27)
				)
				(hide yes)
			)
		)
		(symbol "MG1275W-XN2MM_0_0"
			(pin passive line
				(at 12.7 15.24 180)
				(length 2.54)
				(name "N1"
					(effects
						(font
							(size 1.27 1.27)
						)
					)
				)
				(number "13"
					(effects
						(font
							(size 1.27 1.27)
						)
					)
				)
			)
			(pin passive line
				(at 12.7 15.24 180)
				(length 2.54) hide
				(name "N1"
					(effects
						(font
							(size 1.27 1.27)
						)
					)
				)
				(number "14"
					(effects
						(font
							(size 1.27 1.27)
						)
					)
				)
			)
			(pin passive line
				(at 12.7 15.24 180)
				(length 2.54) hide
				(name "N1"
					(effects
						(font
							(size 1.27 1.27)
						)
					)
				)
				(number "15"
					(effects
						(font
							(size 1.27 1.27)
						)
					)
				)
			)
			(pin passive line
				(at 12.7 17.78 180)
				(length 2.54)
				(name "P1"
					(effects
						(font
							(size 1.27 1.27)
						)
					)
				)
				(number "16"
					(effects
						(font
							(size 1.27 1.27)
						)
					)
				)
			)
			(pin passive line
				(at 12.7 17.78 180)
				(length 2.54) hide
				(name "P1"
					(effects
						(font
							(size 1.27 1.27)
						)
					)
				)
				(number "17"
					(effects
						(font
							(size 1.27 1.27)
						)
					)
				)
			)
			(pin passive line
				(at 12.7 17.78 180)
				(length 2.54) hide
				(name "P1"
					(effects
						(font
							(size 1.27 1.27)
						)
					)
				)
				(number "18"
					(effects
						(font
							(size 1.27 1.27)
						)
					)
				)
			)
			(pin passive line
				(at 12.7 -20.32 180)
				(length 2.54)
				(name "T1"
					(effects
						(font
							(size 1.27 1.27)
						)
					)
				)
				(number "19"
					(effects
						(font
							(size 1.27 1.27)
						)
					)
				)
			)
			(pin passive line
				(at 12.7 -17.78 180)
				(length 2.54)
				(name "T2"
					(effects
						(font
							(size 1.27 1.27)
						)
					)
				)
				(number "20"
					(effects
						(font
							(size 1.27 1.27)
						)
					)
				)
			)
			(pin passive line
				(at 12.7 17.78 180)
				(length 2.54) hide
				(name "P1"
					(effects
						(font
							(size 1.27 1.27)
						)
					)
				)
				(number "30"
					(effects
						(font
							(size 1.27 1.27)
						)
					)
				)
			)
			(pin passive line
				(at 12.7 17.78 180)
				(length 2.54) hide
				(name "P1"
					(effects
						(font
							(size 1.27 1.27)
						)
					)
				)
				(number "31"
					(effects
						(font
							(size 1.27 1.27)
						)
					)
				)
			)
			(pin passive line
				(at 12.7 17.78 180)
				(length 2.54) hide
				(name "P1"
					(effects
						(font
							(size 1.27 1.27)
						)
					)
				)
				(number "32"
					(effects
						(font
							(size 1.27 1.27)
						)
					)
				)
			)
			(pin passive line
				(at 12.7 15.24 180)
				(length 2.54) hide
				(name "N1"
					(effects
						(font
							(size 1.27 1.27)
						)
					)
				)
				(number "33"
					(effects
						(font
							(size 1.27 1.27)
						)
					)
				)
			)
			(pin passive line
				(at 12.7 15.24 180)
				(length 2.54) hide
				(name "N1"
					(effects
						(font
							(size 1.27 1.27)
						)
					)
				)
				(number "34"
					(effects
						(font
							(size 1.27 1.27)
						)
					)
				)
			)
			(pin passive line
				(at 12.7 15.24 180)
				(length 2.54) hide
				(name "N1"
					(effects
						(font
							(size 1.27 1.27)
						)
					)
				)
				(number "35"
					(effects
						(font
							(size 1.27 1.27)
						)
					)
				)
			)
		)
		(symbol "MG1275W-XN2MM_1_1"
			(rectangle
				(start -10.16 22.86)
				(end 10.16 -22.86)
				(stroke
					(width 0.254)
					(type default)
				)
				(fill
					(type background)
				)
			)
			(pin passive line
				(at -12.7 12.7 0)
				(length 2.54)
				(name "G1"
					(effects
						(font
							(size 1.27 1.27)
						)
					)
				)
				(number "1"
					(effects
						(font
							(size 1.27 1.27)
						)
					)
				)
			)
			(pin passive line
				(at -12.7 -10.16 0)
				(length 2.54)
				(name "W"
					(effects
						(font
							(size 1.27 1.27)
						)
					)
				)
				(number "10"
					(effects
						(font
							(size 1.27 1.27)
						)
					)
				)
			)
			(pin passive line
				(at -12.7 -12.7 0)
				(length 2.54)
				(name "G6"
					(effects
						(font
							(size 1.27 1.27)
						)
					)
				)
				(number "11"
					(effects
						(font
							(size 1.27 1.27)
						)
					)
				)
			)
			(pin passive line
				(at -12.7 -20.32 0)
				(length 2.54) hide
				(name "N1"
					(effects
						(font
							(size 1.27 1.27)
						)
					)
				)
				(number "12"
					(effects
						(font
							(size 1.27 1.27)
						)
					)
				)
			)
			(pin passive line
				(at -12.7 10.16 0)
				(length 2.54)
				(name "U"
					(effects
						(font
							(size 1.27 1.27)
						)
					)
				)
				(number "2"
					(effects
						(font
							(size 1.27 1.27)
						)
					)
				)
			)
			(pin passive line
				(at 12.7 0 180)
				(length 2.54)
				(name "W"
					(effects
						(font
							(size 1.27 1.27)
						)
					)
				)
				(number "21"
					(effects
						(font
							(size 1.27 1.27)
						)
					)
				)
			)
			(pin passive line
				(at 12.7 0 180)
				(length 2.54) hide
				(name "W"
					(effects
						(font
							(size 1.27 1.27)
						)
					)
				)
				(number "22"
					(effects
						(font
							(size 1.27 1.27)
						)
					)
				)
			)
			(pin passive line
				(at 12.7 0 180)
				(length 2.54) hide
				(name "W"
					(effects
						(font
							(size 1.27 1.27)
						)
					)
				)
				(number "23"
					(effects
						(font
							(size 1.27 1.27)
						)
					)
				)
			)
			(pin passive line
				(at 12.7 2.54 180)
				(length 2.54)
				(name "V"
					(effects
						(font
							(size 1.27 1.27)
						)
					)
				)
				(number "24"
					(effects
						(font
							(size 1.27 1.27)
						)
					)
				)
			)
			(pin passive line
				(at 12.7 2.54 180)
				(length 2.54) hide
				(name "V"
					(effects
						(font
							(size 1.27 1.27)
						)
					)
				)
				(number "25"
					(effects
						(font
							(size 1.27 1.27)
						)
					)
				)
			)
			(pin passive line
				(at 12.7 2.54 180)
				(length 2.54) hide
				(name "V"
					(effects
						(font
							(size 1.27 1.27)
						)
					)
				)
				(number "26"
					(effects
						(font
							(size 1.27 1.27)
						)
					)
				)
			)
			(pin passive line
				(at 12.7 5.08 180)
				(length 2.54)
				(name "U"
					(effects
						(font
							(size 1.27 1.27)
						)
					)
				)
				(number "27"
					(effects
						(font
							(size 1.27 1.27)
						)
					)
				)
			)
			(pin passive line
				(at 12.7 5.08 180)
				(length 2.54) hide
				(name "U"
					(effects
						(font
							(size 1.27 1.27)
						)
					)
				)
				(number "28"
					(effects
						(font
							(size 1.27 1.27)
						)
					)
				)
			)
			(pin passive line
				(at 12.7 5.08 180)
				(length 2.54) hide
				(name "U"
					(effects
						(font
							(size 1.27 1.27)
						)
					)
				)
				(number "29"
					(effects
						(font
							(size 1.27 1.27)
						)
					)
				)
			)
			(pin passive line
				(at -12.7 7.62 0)
				(length 2.54)
				(name "G2"
					(effects
						(font
							(size 1.27 1.27)
						)
					)
				)
				(number "3"
					(effects
						(font
							(size 1.27 1.27)
						)
					)
				)
			)
			(pin passive line
				(at -12.7 -20.32 0)
				(length 2.54)
				(name "N1"
					(effects
						(font
							(size 1.27 1.27)
						)
					)
				)
				(number "4"
					(effects
						(font
							(size 1.27 1.27)
						)
					)
				)
			)
			(pin passive line
				(at -12.7 2.54 0)
				(length 2.54)
				(name "G3"
					(effects
						(font
							(size 1.27 1.27)
						)
					)
				)
				(number "5"
					(effects
						(font
							(size 1.27 1.27)
						)
					)
				)
			)
			(pin passive line
				(at -12.7 0 0)
				(length 2.54)
				(name "V"
					(effects
						(font
							(size 1.27 1.27)
						)
					)
				)
				(number "6"
					(effects
						(font
							(size 1.27 1.27)
						)
					)
				)
			)
			(pin passive line
				(at -12.7 -2.54 0)
				(length 2.54)
				(name "G4"
					(effects
						(font
							(size 1.27 1.27)
						)
					)
				)
				(number "7"
					(effects
						(font
							(size 1.27 1.27)
						)
					)
				)
			)
			(pin passive line
				(at -12.7 -20.32 0)
				(length 2.54) hide
				(name "N1"
					(effects
						(font
							(size 1.27 1.27)
						)
					)
				)
				(number "8"
					(effects
						(font
							(size 1.27 1.27)
						)
					)
				)
			)
			(pin passive line
				(at -12.7 -7.62 0)
				(length 2.54)
				(name "G5"
					(effects
						(font
							(size 1.27 1.27)
						)
					)
				)
				(number "9"
					(effects
						(font
							(size 1.27 1.27)
						)
					)
				)
			)
		)
	)
	(symbol "STGIPS10C60-H"
		(exclude_from_sim no)
		(in_bom yes)
		(on_board yes)
		(property "Reference" "U"
			(at -7.62 27.94 0)
			(effects
				(font
					(size 1.27 1.27)
				)
			)
		)
		(property "Value" "STGIPS10C60-H"
			(at 10.16 27.94 0)
			(effects
				(font
					(size 1.27 1.27)
				)
			)
		)
		(property "Footprint" "Transistor_Power_Module:ST_SDIP-25L"
			(at 0 -33.02 0)
			(effects
				(font
					(size 1.27 1.27)
				)
				(hide yes)
			)
		)
		(property "Datasheet" "https://www.st.com/resource/en/datasheet/stgips10c60-h.pdf"
			(at 0 -35.56 0)
			(effects
				(font
					(size 1.27 1.27)
				)
				(hide yes)
			)
		)
		(property "Description" "10 A, 600 V, 20KHz, 33Wx6, 3-phase, Control Logic, Positive Input , Freewheeling Diode, Undervoltage Lockout, Interlocking, Shut down (SD), Comparator, SDIP-25L"
			(at 0 0 0)
			(effects
				(font
					(size 1.27 1.27)
				)
				(hide yes)
			)
		)
		(property "ki_keywords" "SLLIMM IPM inverter short-circuit rugged IGBT"
			(at 0 0 0)
			(effects
				(font
					(size 1.27 1.27)
				)
				(hide yes)
			)
		)
		(property "ki_fp_filters" "ST*SDIP*"
			(at 0 0 0)
			(effects
				(font
					(size 1.27 1.27)
				)
				(hide yes)
			)
		)
		(symbol "STGIPS10C60-H_1_1"
			(rectangle
				(start -10.16 25.4)
				(end 10.16 -25.4)
				(stroke
					(width 0.254)
					(type default)
				)
				(fill
					(type background)
				)
			)
			(pin output line
				(at -12.7 7.62 0)
				(length 2.54)
				(name "OUTU"
					(effects
						(font
							(size 1.27 1.27)
						)
					)
				)
				(number "1"
					(effects
						(font
							(size 1.27 1.27)
						)
					)
				)
			)
			(pin input line
				(at -12.7 0 0)
				(length 2.54)
				(name "HINV"
					(effects
						(font
							(size 1.27 1.27)
						)
					)
				)
				(number "10"
					(effects
						(font
							(size 1.27 1.27)
						)
					)
				)
			)
			(pin output line
				(at -12.7 -12.7 0)
				(length 2.54)
				(name "OUTW"
					(effects
						(font
							(size 1.27 1.27)
						)
					)
				)
				(number "11"
					(effects
						(font
							(size 1.27 1.27)
						)
					)
				)
			)
			(pin passive line
				(at -12.7 15.24 0)
				(length 2.54)
				(name "VBOOTW"
					(effects
						(font
							(size 1.27 1.27)
						)
					)
				)
				(number "12"
					(effects
						(font
							(size 1.27 1.27)
						)
					)
				)
			)
			(pin input line
				(at -12.7 -15.24 0)
				(length 2.54)
				(name "LINW"
					(effects
						(font
							(size 1.27 1.27)
						)
					)
				)
				(number "13"
					(effects
						(font
							(size 1.27 1.27)
						)
					)
				)
			)
			(pin input line
				(at -12.7 -10.16 0)
				(length 2.54)
				(name "HINW"
					(effects
						(font
							(size 1.27 1.27)
						)
					)
				)
				(number "14"
					(effects
						(font
							(size 1.27 1.27)
						)
					)
				)
			)
			(pin input line
				(at -12.7 -17.78 0)
				(length 2.54)
				(name "~{SD}/OD"
					(effects
						(font
							(size 1.27 1.27)
						)
					)
				)
				(number "15"
					(effects
						(font
							(size 1.27 1.27)
						)
					)
				)
			)
			(pin input line
				(at 12.7 -17.78 180)
				(length 2.54)
				(name "CIN"
					(effects
						(font
							(size 1.27 1.27)
						)
					)
				)
				(number "16"
					(effects
						(font
							(size 1.27 1.27)
						)
					)
				)
			)
			(pin passive line
				(at 12.7 -12.7 180)
				(length 2.54)
				(name "NW"
					(effects
						(font
							(size 1.27 1.27)
						)
					)
				)
				(number "17"
					(effects
						(font
							(size 1.27 1.27)
						)
					)
				)
			)
			(pin passive line
				(at 12.7 -2.54 180)
				(length 2.54)
				(name "W"
					(effects
						(font
							(size 1.27 1.27)
						)
					)
				)
				(number "18"
					(effects
						(font
							(size 1.27 1.27)
						)
					)
				)
			)
			(pin passive line
				(at 12.7 15.24 180)
				(length 2.54)
				(name "P"
					(effects
						(font
							(size 1.27 1.27)
						)
					)
				)
				(number "19"
					(effects
						(font
							(size 1.27 1.27)
						)
					)
				)
			)
			(pin passive line
				(at -12.7 20.32 0)
				(length 2.54)
				(name "VBOOTU"
					(effects
						(font
							(size 1.27 1.27)
						)
					)
				)
				(number "2"
					(effects
						(font
							(size 1.27 1.27)
						)
					)
				)
			)
			(pin passive line
				(at 12.7 -10.16 180)
				(length 2.54)
				(name "NV"
					(effects
						(font
							(size 1.27 1.27)
						)
					)
				)
				(number "20"
					(effects
						(font
							(size 1.27 1.27)
						)
					)
				)
			)
			(pin passive line
				(at 12.7 0 180)
				(length 2.54)
				(name "V"
					(effects
						(font
							(size 1.27 1.27)
						)
					)
				)
				(number "21"
					(effects
						(font
							(size 1.27 1.27)
						)
					)
				)
			)
			(pin passive line
				(at 12.7 15.24 180)
				(length 2.54) hide
				(name "P"
					(effects
						(font
							(size 1.27 1.27)
						)
					)
				)
				(number "22"
					(effects
						(font
							(size 1.27 1.27)
						)
					)
				)
			)
			(pin passive line
				(at 12.7 -7.62 180)
				(length 2.54)
				(name "NU"
					(effects
						(font
							(size 1.27 1.27)
						)
					)
				)
				(number "23"
					(effects
						(font
							(size 1.27 1.27)
						)
					)
				)
			)
			(pin passive line
				(at 12.7 2.54 180)
				(length 2.54)
				(name "U"
					(effects
						(font
							(size 1.27 1.27)
						)
					)
				)
				(number "24"
					(effects
						(font
							(size 1.27 1.27)
						)
					)
				)
			)
			(pin passive line
				(at 12.7 15.24 180)
				(length 2.54) hide
				(name "P"
					(effects
						(font
							(size 1.27 1.27)
						)
					)
				)
				(number "25"
					(effects
						(font
							(size 1.27 1.27)
						)
					)
				)
			)
			(pin input line
				(at -12.7 5.08 0)
				(length 2.54)
				(name "LINU"
					(effects
						(font
							(size 1.27 1.27)
						)
					)
				)
				(number "3"
					(effects
						(font
							(size 1.27 1.27)
						)
					)
				)
			)
			(pin input line
				(at -12.7 10.16 0)
				(length 2.54)
				(name "HINU"
					(effects
						(font
							(size 1.27 1.27)
						)
					)
				)
				(number "4"
					(effects
						(font
							(size 1.27 1.27)
						)
					)
				)
			)
			(pin power_in line
				(at 0 27.94 270)
				(length 2.54)
				(name "VCC"
					(effects
						(font
							(size 1.27 1.27)
						)
					)
				)
				(number "5"
					(effects
						(font
							(size 1.27 1.27)
						)
					)
				)
			)
			(pin output line
				(at -12.7 -2.54 0)
				(length 2.54)
				(name "OUTV"
					(effects
						(font
							(size 1.27 1.27)
						)
					)
				)
				(number "6"
					(effects
						(font
							(size 1.27 1.27)
						)
					)
				)
			)
			(pin passive line
				(at -12.7 17.78 0)
				(length 2.54)
				(name "VBOOTV"
					(effects
						(font
							(size 1.27 1.27)
						)
					)
				)
				(number "7"
					(effects
						(font
							(size 1.27 1.27)
						)
					)
				)
			)
			(pin power_in line
				(at 0 -27.94 90)
				(length 2.54)
				(name "GND"
					(effects
						(font
							(size 1.27 1.27)
						)
					)
				)
				(number "8"
					(effects
						(font
							(size 1.27 1.27)
						)
					)
				)
			)
			(pin input line
				(at -12.7 -5.08 0)
				(length 2.54)
				(name "LINV"
					(effects
						(font
							(size 1.27 1.27)
						)
					)
				)
				(number "9"
					(effects
						(font
							(size 1.27 1.27)
						)
					)
				)
			)
		)
	)
	(symbol "STGIPS10K60A"
		(exclude_from_sim no)
		(in_bom yes)
		(on_board yes)
		(property "Reference" "U"
			(at 10.16 30.48 0)
			(effects
				(font
					(size 1.27 1.27)
				)
			)
		)
		(property "Value" "STGIPS10K60A"
			(at 10.16 27.94 0)
			(effects
				(font
					(size 1.27 1.27)
				)
			)
		)
		(property "Footprint" "Transistor_Power_Module:ST_SDIP-25L"
			(at 0 -33.02 0)
			(effects
				(font
					(size 1.27 1.27)
				)
				(hide yes)
			)
		)
		(property "Datasheet" "https://www.st.com/resource/en/datasheet/stgips10k60a.pdf"
			(at 0 -35.56 0)
			(effects
				(font
					(size 1.27 1.27)
				)
				(hide yes)
			)
		)
		(property "Description" "10 A, 600 V, 20KHz, 33Wx6, 3-phase, Control Logic, Positive Input , Freewheeling Diodes, Undervoltage Lockout, Interlocking, 5k NTC, SDIP-25L"
			(at 0 0 0)
			(effects
				(font
					(size 1.27 1.27)
				)
				(hide yes)
			)
		)
		(property "ki_keywords" "SLLIMM IPM inverter short-circuit rugged IGBT"
			(at 0 0 0)
			(effects
				(font
					(size 1.27 1.27)
				)
				(hide yes)
			)
		)
		(property "ki_fp_filters" "ST*SDIP*"
			(at 0 0 0)
			(effects
				(font
					(size 1.27 1.27)
				)
				(hide yes)
			)
		)
		(symbol "STGIPS10K60A_0_1"
			(rectangle
				(start -10.16 25.4)
				(end 10.16 -25.4)
				(stroke
					(width 0.254)
					(type default)
				)
				(fill
					(type background)
				)
			)
		)
		(symbol "STGIPS10K60A_1_1"
			(pin output line
				(at -12.7 7.62 0)
				(length 2.54)
				(name "OUTU"
					(effects
						(font
							(size 1.27 1.27)
						)
					)
				)
				(number "1"
					(effects
						(font
							(size 1.27 1.27)
						)
					)
				)
			)
			(pin input line
				(at -12.7 0 0)
				(length 2.54)
				(name "HINV"
					(effects
						(font
							(size 1.27 1.27)
						)
					)
				)
				(number "10"
					(effects
						(font
							(size 1.27 1.27)
						)
					)
				)
			)
			(pin output line
				(at -12.7 -12.7 0)
				(length 2.54)
				(name "OUTW"
					(effects
						(font
							(size 1.27 1.27)
						)
					)
				)
				(number "11"
					(effects
						(font
							(size 1.27 1.27)
						)
					)
				)
			)
			(pin passive line
				(at -12.7 15.24 0)
				(length 2.54)
				(name "VBOOTW"
					(effects
						(font
							(size 1.27 1.27)
						)
					)
				)
				(number "12"
					(effects
						(font
							(size 1.27 1.27)
						)
					)
				)
			)
			(pin input line
				(at -12.7 -15.24 0)
				(length 2.54)
				(name "LINW"
					(effects
						(font
							(size 1.27 1.27)
						)
					)
				)
				(number "13"
					(effects
						(font
							(size 1.27 1.27)
						)
					)
				)
			)
			(pin input line
				(at -12.7 -10.16 0)
				(length 2.54)
				(name "HINW"
					(effects
						(font
							(size 1.27 1.27)
						)
					)
				)
				(number "14"
					(effects
						(font
							(size 1.27 1.27)
						)
					)
				)
			)
			(pin passive line
				(at 12.7 -22.86 180)
				(length 2.54)
				(name "T1"
					(effects
						(font
							(size 1.27 1.27)
						)
					)
				)
				(number "15"
					(effects
						(font
							(size 1.27 1.27)
						)
					)
				)
			)
			(pin passive line
				(at 12.7 -20.32 180)
				(length 2.54)
				(name "T2"
					(effects
						(font
							(size 1.27 1.27)
						)
					)
				)
				(number "16"
					(effects
						(font
							(size 1.27 1.27)
						)
					)
				)
			)
			(pin passive line
				(at 12.7 -12.7 180)
				(length 2.54)
				(name "NW"
					(effects
						(font
							(size 1.27 1.27)
						)
					)
				)
				(number "17"
					(effects
						(font
							(size 1.27 1.27)
						)
					)
				)
			)
			(pin passive line
				(at 12.7 -2.54 180)
				(length 2.54)
				(name "W"
					(effects
						(font
							(size 1.27 1.27)
						)
					)
				)
				(number "18"
					(effects
						(font
							(size 1.27 1.27)
						)
					)
				)
			)
			(pin passive line
				(at 12.7 15.24 180)
				(length 2.54) hide
				(name "P"
					(effects
						(font
							(size 1.27 1.27)
						)
					)
				)
				(number "19"
					(effects
						(font
							(size 1.27 1.27)
						)
					)
				)
			)
			(pin passive line
				(at -12.7 20.32 0)
				(length 2.54)
				(name "VBOOTU"
					(effects
						(font
							(size 1.27 1.27)
						)
					)
				)
				(number "2"
					(effects
						(font
							(size 1.27 1.27)
						)
					)
				)
			)
			(pin passive line
				(at 12.7 -10.16 180)
				(length 2.54)
				(name "NV"
					(effects
						(font
							(size 1.27 1.27)
						)
					)
				)
				(number "20"
					(effects
						(font
							(size 1.27 1.27)
						)
					)
				)
			)
			(pin passive line
				(at 12.7 0 180)
				(length 2.54)
				(name "V"
					(effects
						(font
							(size 1.27 1.27)
						)
					)
				)
				(number "21"
					(effects
						(font
							(size 1.27 1.27)
						)
					)
				)
			)
			(pin passive line
				(at 12.7 15.24 180)
				(length 2.54) hide
				(name "P"
					(effects
						(font
							(size 1.27 1.27)
						)
					)
				)
				(number "22"
					(effects
						(font
							(size 1.27 1.27)
						)
					)
				)
			)
			(pin passive line
				(at 12.7 -7.62 180)
				(length 2.54)
				(name "NU"
					(effects
						(font
							(size 1.27 1.27)
						)
					)
				)
				(number "23"
					(effects
						(font
							(size 1.27 1.27)
						)
					)
				)
			)
			(pin passive line
				(at 12.7 2.54 180)
				(length 2.54)
				(name "U"
					(effects
						(font
							(size 1.27 1.27)
						)
					)
				)
				(number "24"
					(effects
						(font
							(size 1.27 1.27)
						)
					)
				)
			)
			(pin passive line
				(at 12.7 15.24 180)
				(length 2.54)
				(name "P"
					(effects
						(font
							(size 1.27 1.27)
						)
					)
				)
				(number "25"
					(effects
						(font
							(size 1.27 1.27)
						)
					)
				)
			)
			(pin input line
				(at -12.7 5.08 0)
				(length 2.54)
				(name "LINU"
					(effects
						(font
							(size 1.27 1.27)
						)
					)
				)
				(number "3"
					(effects
						(font
							(size 1.27 1.27)
						)
					)
				)
			)
			(pin input line
				(at -12.7 10.16 0)
				(length 2.54)
				(name "HINU"
					(effects
						(font
							(size 1.27 1.27)
						)
					)
				)
				(number "4"
					(effects
						(font
							(size 1.27 1.27)
						)
					)
				)
			)
			(pin power_in line
				(at 0 27.94 270)
				(length 2.54)
				(name "VCC"
					(effects
						(font
							(size 1.27 1.27)
						)
					)
				)
				(number "5"
					(effects
						(font
							(size 1.27 1.27)
						)
					)
				)
			)
			(pin output line
				(at -12.7 -2.54 0)
				(length 2.54)
				(name "OUTV"
					(effects
						(font
							(size 1.27 1.27)
						)
					)
				)
				(number "6"
					(effects
						(font
							(size 1.27 1.27)
						)
					)
				)
			)
			(pin passive line
				(at -12.7 17.78 0)
				(length 2.54)
				(name "VBOOTV"
					(effects
						(font
							(size 1.27 1.27)
						)
					)
				)
				(number "7"
					(effects
						(font
							(size 1.27 1.27)
						)
					)
				)
			)
			(pin power_in line
				(at 0 -27.94 90)
				(length 2.54)
				(name "GND"
					(effects
						(font
							(size 1.27 1.27)
						)
					)
				)
				(number "8"
					(effects
						(font
							(size 1.27 1.27)
						)
					)
				)
			)
			(pin input line
				(at -12.7 -5.08 0)
				(length 2.54)
				(name "LINV"
					(effects
						(font
							(size 1.27 1.27)
						)
					)
				)
				(number "9"
					(effects
						(font
							(size 1.27 1.27)
						)
					)
				)
			)
		)
	)
	(symbol "STGIPS14K60T"
		(exclude_from_sim no)
		(in_bom yes)
		(on_board yes)
		(property "Reference" "U"
			(at 10.16 30.48 0)
			(effects
				(font
					(size 1.27 1.27)
				)
			)
		)
		(property "Value" "STGIPS14K60T"
			(at 10.16 27.94 0)
			(effects
				(font
					(size 1.27 1.27)
				)
			)
		)
		(property "Footprint" "Transistor_Power_Module:ST_SDIP-25L"
			(at 0 -33.02 0)
			(effects
				(font
					(size 1.27 1.27)
				)
				(hide yes)
			)
		)
		(property "Datasheet" "https://www.st.com/resource/en/datasheet/stgips14k60t.pdf"
			(at 0 -35.56 0)
			(effects
				(font
					(size 1.27 1.27)
				)
				(hide yes)
			)
		)
		(property "Description" "14 A, 600 V, 20KHz, 42Wx6,  3-phase, Control Logic, Negative Input , Freewheeling Diode, Undervoltage Lockout, Interlocking, Shut down (SD), 4k7 NTC, SDIP-25L"
			(at 0 0 0)
			(effects
				(font
					(size 1.27 1.27)
				)
				(hide yes)
			)
		)
		(property "ki_keywords" "SLLIMM IPM inverter short-circuit rugged IGBT"
			(at 0 0 0)
			(effects
				(font
					(size 1.27 1.27)
				)
				(hide yes)
			)
		)
		(property "ki_fp_filters" "ST*SDIP*"
			(at 0 0 0)
			(effects
				(font
					(size 1.27 1.27)
				)
				(hide yes)
			)
		)
		(symbol "STGIPS14K60T_0_1"
			(rectangle
				(start -10.16 25.4)
				(end 10.16 -25.4)
				(stroke
					(width 0.254)
					(type default)
				)
				(fill
					(type background)
				)
			)
		)
		(symbol "STGIPS14K60T_1_1"
			(pin output line
				(at -12.7 7.62 0)
				(length 2.54)
				(name "OUTU"
					(effects
						(font
							(size 1.27 1.27)
						)
					)
				)
				(number "1"
					(effects
						(font
							(size 1.27 1.27)
						)
					)
				)
			)
			(pin input line
				(at -12.7 0 0)
				(length 2.54)
				(name "HINV"
					(effects
						(font
							(size 1.27 1.27)
						)
					)
				)
				(number "10"
					(effects
						(font
							(size 1.27 1.27)
						)
					)
				)
			)
			(pin output line
				(at -12.7 -12.7 0)
				(length 2.54)
				(name "OUTW"
					(effects
						(font
							(size 1.27 1.27)
						)
					)
				)
				(number "11"
					(effects
						(font
							(size 1.27 1.27)
						)
					)
				)
			)
			(pin passive line
				(at -12.7 15.24 0)
				(length 2.54)
				(name "VBOOTW"
					(effects
						(font
							(size 1.27 1.27)
						)
					)
				)
				(number "12"
					(effects
						(font
							(size 1.27 1.27)
						)
					)
				)
			)
			(pin input line
				(at -12.7 -15.24 0)
				(length 2.54)
				(name "~{LINW}"
					(effects
						(font
							(size 1.27 1.27)
						)
					)
				)
				(number "13"
					(effects
						(font
							(size 1.27 1.27)
						)
					)
				)
			)
			(pin input line
				(at -12.7 -10.16 0)
				(length 2.54)
				(name "HINW"
					(effects
						(font
							(size 1.27 1.27)
						)
					)
				)
				(number "14"
					(effects
						(font
							(size 1.27 1.27)
						)
					)
				)
			)
			(pin input line
				(at -12.7 -17.78 0)
				(length 2.54)
				(name "~{SD}"
					(effects
						(font
							(size 1.27 1.27)
						)
					)
				)
				(number "15"
					(effects
						(font
							(size 1.27 1.27)
						)
					)
				)
			)
			(pin passive line
				(at 12.7 -22.86 180)
				(length 2.54)
				(name "T1"
					(effects
						(font
							(size 1.27 1.27)
						)
					)
				)
				(number "16"
					(effects
						(font
							(size 1.27 1.27)
						)
					)
				)
			)
			(pin passive line
				(at 12.7 -12.7 180)
				(length 2.54)
				(name "NW"
					(effects
						(font
							(size 1.27 1.27)
						)
					)
				)
				(number "17"
					(effects
						(font
							(size 1.27 1.27)
						)
					)
				)
			)
			(pin passive line
				(at 12.7 -2.54 180)
				(length 2.54)
				(name "W"
					(effects
						(font
							(size 1.27 1.27)
						)
					)
				)
				(number "18"
					(effects
						(font
							(size 1.27 1.27)
						)
					)
				)
			)
			(pin passive line
				(at 12.7 15.24 180)
				(length 2.54) hide
				(name "P"
					(effects
						(font
							(size 1.27 1.27)
						)
					)
				)
				(number "19"
					(effects
						(font
							(size 1.27 1.27)
						)
					)
				)
			)
			(pin passive line
				(at -12.7 20.32 0)
				(length 2.54)
				(name "VBOOTU"
					(effects
						(font
							(size 1.27 1.27)
						)
					)
				)
				(number "2"
					(effects
						(font
							(size 1.27 1.27)
						)
					)
				)
			)
			(pin passive line
				(at 12.7 -10.16 180)
				(length 2.54)
				(name "NV"
					(effects
						(font
							(size 1.27 1.27)
						)
					)
				)
				(number "20"
					(effects
						(font
							(size 1.27 1.27)
						)
					)
				)
			)
			(pin passive line
				(at 12.7 0 180)
				(length 2.54)
				(name "V"
					(effects
						(font
							(size 1.27 1.27)
						)
					)
				)
				(number "21"
					(effects
						(font
							(size 1.27 1.27)
						)
					)
				)
			)
			(pin passive line
				(at 12.7 15.24 180)
				(length 2.54) hide
				(name "P"
					(effects
						(font
							(size 1.27 1.27)
						)
					)
				)
				(number "22"
					(effects
						(font
							(size 1.27 1.27)
						)
					)
				)
			)
			(pin passive line
				(at 12.7 -7.62 180)
				(length 2.54)
				(name "NU"
					(effects
						(font
							(size 1.27 1.27)
						)
					)
				)
				(number "23"
					(effects
						(font
							(size 1.27 1.27)
						)
					)
				)
			)
			(pin passive line
				(at 12.7 2.54 180)
				(length 2.54)
				(name "U"
					(effects
						(font
							(size 1.27 1.27)
						)
					)
				)
				(number "24"
					(effects
						(font
							(size 1.27 1.27)
						)
					)
				)
			)
			(pin passive line
				(at 12.7 15.24 180)
				(length 2.54)
				(name "P"
					(effects
						(font
							(size 1.27 1.27)
						)
					)
				)
				(number "25"
					(effects
						(font
							(size 1.27 1.27)
						)
					)
				)
			)
			(pin input line
				(at -12.7 5.08 0)
				(length 2.54)
				(name "~{LINU}"
					(effects
						(font
							(size 1.27 1.27)
						)
					)
				)
				(number "3"
					(effects
						(font
							(size 1.27 1.27)
						)
					)
				)
			)
			(pin input line
				(at -12.7 10.16 0)
				(length 2.54)
				(name "HINU"
					(effects
						(font
							(size 1.27 1.27)
						)
					)
				)
				(number "4"
					(effects
						(font
							(size 1.27 1.27)
						)
					)
				)
			)
			(pin power_in line
				(at 0 27.94 270)
				(length 2.54)
				(name "VCC"
					(effects
						(font
							(size 1.27 1.27)
						)
					)
				)
				(number "5"
					(effects
						(font
							(size 1.27 1.27)
						)
					)
				)
			)
			(pin output line
				(at -12.7 -2.54 0)
				(length 2.54)
				(name "OUTV"
					(effects
						(font
							(size 1.27 1.27)
						)
					)
				)
				(number "6"
					(effects
						(font
							(size 1.27 1.27)
						)
					)
				)
			)
			(pin passive line
				(at -12.7 17.78 0)
				(length 2.54)
				(name "VBOOTV"
					(effects
						(font
							(size 1.27 1.27)
						)
					)
				)
				(number "7"
					(effects
						(font
							(size 1.27 1.27)
						)
					)
				)
			)
			(pin power_in line
				(at 0 -27.94 90)
				(length 2.54)
				(name "GND"
					(effects
						(font
							(size 1.27 1.27)
						)
					)
				)
				(number "8"
					(effects
						(font
							(size 1.27 1.27)
						)
					)
				)
			)
			(pin input line
				(at -12.7 -5.08 0)
				(length 2.54)
				(name "~{LINV}"
					(effects
						(font
							(size 1.27 1.27)
						)
					)
				)
				(number "9"
					(effects
						(font
							(size 1.27 1.27)
						)
					)
				)
			)
		)
	)
	(symbol "STGIPS20K60"
		(exclude_from_sim no)
		(in_bom yes)
		(on_board yes)
		(property "Reference" "U"
			(at 10.16 30.48 0)
			(effects
				(font
					(size 1.27 1.27)
				)
			)
		)
		(property "Value" "STGIPS20K60"
			(at 10.16 27.94 0)
			(effects
				(font
					(size 1.27 1.27)
				)
			)
		)
		(property "Footprint" "Transistor_Power_Module:ST_SDIP-25L"
			(at 0 -33.02 0)
			(effects
				(font
					(size 1.27 1.27)
				)
				(hide yes)
			)
		)
		(property "Datasheet" "https://www.st.com/resource/en/datasheet/stgips20k60.pdf"
			(at 0 -35.56 0)
			(effects
				(font
					(size 1.27 1.27)
				)
				(hide yes)
			)
		)
		(property "Description" "18 A, 600 V, 20KHz, 52Wx6,  3-phase, Control Logic, Negative Input , Freewheeling Diode, Undervoltage Lockout, Interlocking, Shut down (SD), Comparator, SDIP-25L"
			(at 0 0 0)
			(effects
				(font
					(size 1.27 1.27)
				)
				(hide yes)
			)
		)
		(property "ki_keywords" "SLLIMM IPM inverter short-circuit rugged IGBT"
			(at 0 0 0)
			(effects
				(font
					(size 1.27 1.27)
				)
				(hide yes)
			)
		)
		(property "ki_fp_filters" "ST*SDIP*"
			(at 0 0 0)
			(effects
				(font
					(size 1.27 1.27)
				)
				(hide yes)
			)
		)
		(symbol "STGIPS20K60_0_1"
			(rectangle
				(start -10.16 25.4)
				(end 10.16 -25.4)
				(stroke
					(width 0.254)
					(type default)
				)
				(fill
					(type background)
				)
			)
		)
		(symbol "STGIPS20K60_1_1"
			(pin output line
				(at -12.7 7.62 0)
				(length 2.54)
				(name "OUTU"
					(effects
						(font
							(size 1.27 1.27)
						)
					)
				)
				(number "1"
					(effects
						(font
							(size 1.27 1.27)
						)
					)
				)
			)
			(pin input line
				(at -12.7 0 0)
				(length 2.54)
				(name "HINV"
					(effects
						(font
							(size 1.27 1.27)
						)
					)
				)
				(number "10"
					(effects
						(font
							(size 1.27 1.27)
						)
					)
				)
			)
			(pin output line
				(at -12.7 -12.7 0)
				(length 2.54)
				(name "OUTW"
					(effects
						(font
							(size 1.27 1.27)
						)
					)
				)
				(number "11"
					(effects
						(font
							(size 1.27 1.27)
						)
					)
				)
			)
			(pin passive line
				(at -12.7 15.24 0)
				(length 2.54)
				(name "VBOOTW"
					(effects
						(font
							(size 1.27 1.27)
						)
					)
				)
				(number "12"
					(effects
						(font
							(size 1.27 1.27)
						)
					)
				)
			)
			(pin input line
				(at -12.7 -15.24 0)
				(length 2.54)
				(name "~{LINW}"
					(effects
						(font
							(size 1.27 1.27)
						)
					)
				)
				(number "13"
					(effects
						(font
							(size 1.27 1.27)
						)
					)
				)
			)
			(pin input line
				(at -12.7 -10.16 0)
				(length 2.54)
				(name "HINW"
					(effects
						(font
							(size 1.27 1.27)
						)
					)
				)
				(number "14"
					(effects
						(font
							(size 1.27 1.27)
						)
					)
				)
			)
			(pin input line
				(at -12.7 -17.78 0)
				(length 2.54)
				(name "~{SD}/OD"
					(effects
						(font
							(size 1.27 1.27)
						)
					)
				)
				(number "15"
					(effects
						(font
							(size 1.27 1.27)
						)
					)
				)
			)
			(pin input line
				(at 12.7 -17.78 180)
				(length 2.54)
				(name "CIN"
					(effects
						(font
							(size 1.27 1.27)
						)
					)
				)
				(number "16"
					(effects
						(font
							(size 1.27 1.27)
						)
					)
				)
			)
			(pin passive line
				(at 12.7 -12.7 180)
				(length 2.54)
				(name "NW"
					(effects
						(font
							(size 1.27 1.27)
						)
					)
				)
				(number "17"
					(effects
						(font
							(size 1.27 1.27)
						)
					)
				)
			)
			(pin passive line
				(at 12.7 -2.54 180)
				(length 2.54)
				(name "W"
					(effects
						(font
							(size 1.27 1.27)
						)
					)
				)
				(number "18"
					(effects
						(font
							(size 1.27 1.27)
						)
					)
				)
			)
			(pin passive line
				(at 12.7 15.24 180)
				(length 2.54) hide
				(name "P"
					(effects
						(font
							(size 1.27 1.27)
						)
					)
				)
				(number "19"
					(effects
						(font
							(size 1.27 1.27)
						)
					)
				)
			)
			(pin passive line
				(at -12.7 20.32 0)
				(length 2.54)
				(name "VBOOTU"
					(effects
						(font
							(size 1.27 1.27)
						)
					)
				)
				(number "2"
					(effects
						(font
							(size 1.27 1.27)
						)
					)
				)
			)
			(pin passive line
				(at 12.7 -10.16 180)
				(length 2.54)
				(name "NV"
					(effects
						(font
							(size 1.27 1.27)
						)
					)
				)
				(number "20"
					(effects
						(font
							(size 1.27 1.27)
						)
					)
				)
			)
			(pin passive line
				(at 12.7 0 180)
				(length 2.54)
				(name "V"
					(effects
						(font
							(size 1.27 1.27)
						)
					)
				)
				(number "21"
					(effects
						(font
							(size 1.27 1.27)
						)
					)
				)
			)
			(pin passive line
				(at 12.7 15.24 180)
				(length 2.54) hide
				(name "P"
					(effects
						(font
							(size 1.27 1.27)
						)
					)
				)
				(number "22"
					(effects
						(font
							(size 1.27 1.27)
						)
					)
				)
			)
			(pin passive line
				(at 12.7 -7.62 180)
				(length 2.54)
				(name "NU"
					(effects
						(font
							(size 1.27 1.27)
						)
					)
				)
				(number "23"
					(effects
						(font
							(size 1.27 1.27)
						)
					)
				)
			)
			(pin passive line
				(at 12.7 2.54 180)
				(length 2.54)
				(name "U"
					(effects
						(font
							(size 1.27 1.27)
						)
					)
				)
				(number "24"
					(effects
						(font
							(size 1.27 1.27)
						)
					)
				)
			)
			(pin passive line
				(at 12.7 15.24 180)
				(length 2.54)
				(name "P"
					(effects
						(font
							(size 1.27 1.27)
						)
					)
				)
				(number "25"
					(effects
						(font
							(size 1.27 1.27)
						)
					)
				)
			)
			(pin input line
				(at -12.7 5.08 0)
				(length 2.54)
				(name "~{LINU}"
					(effects
						(font
							(size 1.27 1.27)
						)
					)
				)
				(number "3"
					(effects
						(font
							(size 1.27 1.27)
						)
					)
				)
			)
			(pin input line
				(at -12.7 10.16 0)
				(length 2.54)
				(name "HINU"
					(effects
						(font
							(size 1.27 1.27)
						)
					)
				)
				(number "4"
					(effects
						(font
							(size 1.27 1.27)
						)
					)
				)
			)
			(pin power_in line
				(at 0 27.94 270)
				(length 2.54)
				(name "VCC"
					(effects
						(font
							(size 1.27 1.27)
						)
					)
				)
				(number "5"
					(effects
						(font
							(size 1.27 1.27)
						)
					)
				)
			)
			(pin output line
				(at -12.7 -2.54 0)
				(length 2.54)
				(name "OUTV"
					(effects
						(font
							(size 1.27 1.27)
						)
					)
				)
				(number "6"
					(effects
						(font
							(size 1.27 1.27)
						)
					)
				)
			)
			(pin passive line
				(at -12.7 17.78 0)
				(length 2.54)
				(name "VBOOTV"
					(effects
						(font
							(size 1.27 1.27)
						)
					)
				)
				(number "7"
					(effects
						(font
							(size 1.27 1.27)
						)
					)
				)
			)
			(pin power_in line
				(at 0 -27.94 90)
				(length 2.54)
				(name "GND"
					(effects
						(font
							(size 1.27 1.27)
						)
					)
				)
				(number "8"
					(effects
						(font
							(size 1.27 1.27)
						)
					)
				)
			)
			(pin input line
				(at -12.7 -5.08 0)
				(length 2.54)
				(name "~{LINV}"
					(effects
						(font
							(size 1.27 1.27)
						)
					)
				)
				(number "9"
					(effects
						(font
							(size 1.27 1.27)
						)
					)
				)
			)
		)
	)
	(symbol "A2C25S12M3-F"
		(extends "A2C25S12M3")
		(property "Reference" "U"
			(at 0 30.48 0)
			(effects
				(font
					(size 1.27 1.27)
				)
			)
		)
		(property "Value" "A2C25S12M3-F"
			(at 0 27.94 0)
			(effects
				(font
					(size 1.27 1.27)
				)
			)
		)
		(property "Footprint" "Transistor_Power_Module:ST_ACEPACK-2-CIB_PressFIT"
			(at 0 -27.94 0)
			(effects
				(font
					(size 1.27 1.27)
				)
				(hide yes)
			)
		)
		(property "Datasheet" "https://www.st.com/resource/en/datasheet/a2c25s12m3-f.pdf"
			(at 0 -30.48 0)
			(effects
				(font
					(size 1.27 1.27)
				)
				(hide yes)
			)
		)
		(property "Description" "25A, 1200V, 20kHz, 197W x 6 , 3-phase, Freewheeling Diode, Brake Chopper, Diode Rectifier, 5k NTC, PressFIT, ACEPACK-2-CIB"
			(at 0 0 0)
			(effects
				(font
					(size 1.27 1.27)
				)
				(hide yes)
			)
		)
		(property "ki_keywords" "IGBT Power Module Trench Field Stop Technology M series"
			(at 0 0 0)
			(effects
				(font
					(size 1.27 1.27)
				)
				(hide yes)
			)
		)
		(property "ki_fp_filters" "ST*ACEPACK*2*CIB*PressFIT*"
			(at 0 0 0)
			(effects
				(font
					(size 1.27 1.27)
				)
				(hide yes)
			)
		)
	)
	(symbol "A2C35S12M3"
		(extends "A2C25S12M3")
		(property "Reference" "U"
			(at 0 30.48 0)
			(effects
				(font
					(size 1.27 1.27)
				)
			)
		)
		(property "Value" "A2C35S12M3"
			(at 0 27.94 0)
			(effects
				(font
					(size 1.27 1.27)
				)
			)
		)
		(property "Footprint" "Transistor_Power_Module:ST_ACEPACK-2-CIB"
			(at 0 -27.94 0)
			(effects
				(font
					(size 1.27 1.27)
				)
				(hide yes)
			)
		)
		(property "Datasheet" "https://www.st.com/resource/en/datasheet/a2c35s12m3.pdf"
			(at 0 -30.48 0)
			(effects
				(font
					(size 1.27 1.27)
				)
				(hide yes)
			)
		)
		(property "Description" "35A, 1200V, 20kHz, 250W x 6 , 3-phase, Freewheeling Diode, Brake Chopper, Diode Rectifier, 5k NTC, ACEPACK-2-CIB"
			(at 0 0 0)
			(effects
				(font
					(size 1.27 1.27)
				)
				(hide yes)
			)
		)
		(property "ki_keywords" "IGBT Power Module Trench Field Stop Technology M series"
			(at 0 0 0)
			(effects
				(font
					(size 1.27 1.27)
				)
				(hide yes)
			)
		)
		(property "ki_fp_filters" "ST*ACEPACK*2*CIB*"
			(at 0 0 0)
			(effects
				(font
					(size 1.27 1.27)
				)
				(hide yes)
			)
		)
	)
	(symbol "A2C35S12M3-F"
		(extends "A2C25S12M3")
		(property "Reference" "U"
			(at 0 30.48 0)
			(effects
				(font
					(size 1.27 1.27)
				)
			)
		)
		(property "Value" "A2C35S12M3-F"
			(at 0 27.94 0)
			(effects
				(font
					(size 1.27 1.27)
				)
			)
		)
		(property "Footprint" "Transistor_Power_Module:ST_ACEPACK-2-CIB_PressFIT"
			(at 0 -27.94 0)
			(effects
				(font
					(size 1.27 1.27)
				)
				(hide yes)
			)
		)
		(property "Datasheet" "https://www.st.com/resource/en/datasheet/a2c35s12m3-f.pdf"
			(at 0 -30.48 0)
			(effects
				(font
					(size 1.27 1.27)
				)
				(hide yes)
			)
		)
		(property "Description" "35A, 1200V, 20kHz, 250W x 6 , 3-phase, Freewheeling Diode, Brake Chopper, Diode Rectifier, 5k NTC, PresFIT, ACEPACK-2-CIB"
			(at 0 0 0)
			(effects
				(font
					(size 1.27 1.27)
				)
				(hide yes)
			)
		)
		(property "ki_keywords" "IGBT Power Module Trench Field Stop Technology M series"
			(at 0 0 0)
			(effects
				(font
					(size 1.27 1.27)
				)
				(hide yes)
			)
		)
		(property "ki_fp_filters" "ST*ACEPACK*2*CIB*PressFIT*"
			(at 0 0 0)
			(effects
				(font
					(size 1.27 1.27)
				)
				(hide yes)
			)
		)
	)
	(symbol "A2C50S65M2"
		(extends "A2C25S12M3")
		(property "Reference" "U"
			(at 0 30.48 0)
			(effects
				(font
					(size 1.27 1.27)
				)
			)
		)
		(property "Value" "A2C50S65M2"
			(at 0 27.94 0)
			(effects
				(font
					(size 1.27 1.27)
				)
			)
		)
		(property "Footprint" "Transistor_Power_Module:ST_ACEPACK-2-CIB"
			(at 0 -27.94 0)
			(effects
				(font
					(size 1.27 1.27)
				)
				(hide yes)
			)
		)
		(property "Datasheet" "https://www.st.com/resource/en/datasheet/a2c50s65m2.pdf"
			(at 0 -30.48 0)
			(effects
				(font
					(size 1.27 1.27)
				)
				(hide yes)
			)
		)
		(property "Description" "50A, 650V, 20kHz, 208W x 6 , 3-phase, Freewheeling Diode, Brake Chopper, Diode Rectifier, 5k NTC, ACEPACK-2-CIB"
			(at 0 0 0)
			(effects
				(font
					(size 1.27 1.27)
				)
				(hide yes)
			)
		)
		(property "ki_keywords" "IGBT Power Module Trench Field Stop Technology M series"
			(at 0 0 0)
			(effects
				(font
					(size 1.27 1.27)
				)
				(hide yes)
			)
		)
		(property "ki_fp_filters" "ST*ACEPACK*2*CIB*"
			(at 0 0 0)
			(effects
				(font
					(size 1.27 1.27)
				)
				(hide yes)
			)
		)
	)
	(symbol "A2C50S65M2-F"
		(extends "A2C25S12M3")
		(property "Reference" "U"
			(at 0 30.48 0)
			(effects
				(font
					(size 1.27 1.27)
				)
			)
		)
		(property "Value" "A2C50S65M2-F"
			(at 0 27.94 0)
			(effects
				(font
					(size 1.27 1.27)
				)
			)
		)
		(property "Footprint" "Transistor_Power_Module:ST_ACEPACK-2-CIB_PressFIT"
			(at 0 -27.94 0)
			(effects
				(font
					(size 1.27 1.27)
				)
				(hide yes)
			)
		)
		(property "Datasheet" "https://www.st.com/resource/en/datasheet/a2c50s65m2-f.pdf"
			(at 0 -30.48 0)
			(effects
				(font
					(size 1.27 1.27)
				)
				(hide yes)
			)
		)
		(property "Description" "50A, 650V, 20kHz, 208W x 6 , 3-phase, Freewheeling Diode, Brake Chopper, Diode Rectifier, 5k NTC, PresFIT, ACEPACK-2-CIB"
			(at 0 0 0)
			(effects
				(font
					(size 1.27 1.27)
				)
				(hide yes)
			)
		)
		(property "ki_keywords" "IGBT Power Module Trench Field Stop Technology M series"
			(at 0 0 0)
			(effects
				(font
					(size 1.27 1.27)
				)
				(hide yes)
			)
		)
		(property "ki_fp_filters" "ST*ACEPACK*2*CIB*PressFIT*"
			(at 0 0 0)
			(effects
				(font
					(size 1.27 1.27)
				)
				(hide yes)
			)
		)
	)
	(symbol "FP10R06W1E3"
		(extends "A2C25S12M3")
		(property "Reference" "U"
			(at 0 30.48 0)
			(effects
				(font
					(size 1.27 1.27)
				)
			)
		)
		(property "Value" "FP10R06W1E3"
			(at 0 27.94 0)
			(effects
				(font
					(size 1.27 1.27)
				)
			)
		)
		(property "Footprint" "Transistor_Power_Module:Infineon_EasyPIM-1B"
			(at 0 -27.94 0)
			(effects
				(font
					(size 1.27 1.27)
				)
				(hide yes)
			)
		)
		(property "Datasheet" "https://www.infineon.com/dgdl/Infineon-FP10R06W1E3-DS-v02_01-en_de.pdf?fileId=db3a304412b407950112b43312285a63"
			(at 0 -30.48 0)
			(effects
				(font
					(size 1.27 1.27)
				)
				(hide yes)
			)
		)
		(property "Description" "10A, 600V, 68W, 3-phase, Freewheeling Diode, Brake Chopper, Diode Rectifier, 5k NTC, EasyPIM-1B"
			(at 0 0 0)
			(effects
				(font
					(size 1.27 1.27)
				)
				(hide yes)
			)
		)
		(property "ki_keywords" "IGBT Power Module Trench Field Stop Technology M series"
			(at 0 0 0)
			(effects
				(font
					(size 1.27 1.27)
				)
				(hide yes)
			)
		)
		(property "ki_fp_filters" "Infineon*EasyPIM*1B*"
			(at 0 0 0)
			(effects
				(font
					(size 1.27 1.27)
				)
				(hide yes)
			)
		)
	)
	(symbol "FP15R06W1E3"
		(extends "A2C25S12M3")
		(property "Reference" "U"
			(at 0 30.48 0)
			(effects
				(font
					(size 1.27 1.27)
				)
			)
		)
		(property "Value" "FP15R06W1E3"
			(at 0 27.94 0)
			(effects
				(font
					(size 1.27 1.27)
				)
			)
		)
		(property "Footprint" "Transistor_Power_Module:Infineon_EasyPIM-1B"
			(at 0 -27.94 0)
			(effects
				(font
					(size 1.27 1.27)
				)
				(hide yes)
			)
		)
		(property "Datasheet" "https://www.infineon.com/dgdl/Infineon-FP15R06W1E3-DS-v02_01-en_de.pdf?fileId=db3a304412b407950112b43321b15a77"
			(at 0 -30.48 0)
			(effects
				(font
					(size 1.27 1.27)
				)
				(hide yes)
			)
		)
		(property "Description" "15A, 600V, 81W, 3-phase, Freewheeling Diode, Brake Chopper, Diode Rectifier, 5k NTC, EasyPIM-1B"
			(at 0 0 0)
			(effects
				(font
					(size 1.27 1.27)
				)
				(hide yes)
			)
		)
		(property "ki_keywords" "IGBT Power Module Trench Field Stop Technology"
			(at 0 0 0)
			(effects
				(font
					(size 1.27 1.27)
				)
				(hide yes)
			)
		)
		(property "ki_fp_filters" "Infineon*EasyPIM*1B*"
			(at 0 0 0)
			(effects
				(font
					(size 1.27 1.27)
				)
				(hide yes)
			)
		)
	)
	(symbol "FP15R12W2T4"
		(extends "A2C25S12M3")
		(property "Reference" "U"
			(at 0 30.48 0)
			(effects
				(font
					(size 1.27 1.27)
				)
			)
		)
		(property "Value" "FP15R12W2T4"
			(at 0 27.94 0)
			(effects
				(font
					(size 1.27 1.27)
				)
			)
		)
		(property "Footprint" "Transistor_Power_Module:Infineon_EasyPIM-2B"
			(at 0 -27.94 0)
			(effects
				(font
					(size 1.27 1.27)
				)
				(hide yes)
			)
		)
		(property "Datasheet" "https://www.infineon.com/dgdl/Infineon-FP15R12W2T4-DS-v03_00-en_de.pdf?fileId=db3a30433ba77ced013bae67c3eb3a5e"
			(at 0 -30.48 0)
			(effects
				(font
					(size 1.27 1.27)
				)
				(hide yes)
			)
		)
		(property "Description" "15A, 1200V, 145W, 3-phase, Freewheeling Diode, Brake Chopper, Diode Rectifier, 5k NTC, EasyPIM-2B"
			(at 0 0 0)
			(effects
				(font
					(size 1.27 1.27)
				)
				(hide yes)
			)
		)
		(property "ki_keywords" "IGBT Power Module Trench Field Stop Technology"
			(at 0 0 0)
			(effects
				(font
					(size 1.27 1.27)
				)
				(hide yes)
			)
		)
		(property "ki_fp_filters" "Infineon*EasyPIM*2B*"
			(at 0 0 0)
			(effects
				(font
					(size 1.27 1.27)
				)
				(hide yes)
			)
		)
	)
	(symbol "FP25R12W2T4"
		(extends "A2C25S12M3")
		(property "Reference" "U"
			(at 0 30.48 0)
			(effects
				(font
					(size 1.27 1.27)
				)
			)
		)
		(property "Value" "FP25R12W2T4"
			(at 0 27.94 0)
			(effects
				(font
					(size 1.27 1.27)
				)
			)
		)
		(property "Footprint" "Transistor_Power_Module:Infineon_EasyPIM-2B"
			(at 0 -27.94 0)
			(effects
				(font
					(size 1.27 1.27)
				)
				(hide yes)
			)
		)
		(property "Datasheet" "https://www.infineon.com/dgdl/Infineon-FP25R12W2T4-DS-v02_02-EN.pdf?fileId=db3a3043163797a60116389cdaeb0183"
			(at 0 -30.48 0)
			(effects
				(font
					(size 1.27 1.27)
				)
				(hide yes)
			)
		)
		(property "Description" "25A, 1200V, 175W, 3-phase, Freewheeling Diode, Brake Chopper, Diode Rectifier, 5k NTC, EasyPIM-2B"
			(at 0 0 0)
			(effects
				(font
					(size 1.27 1.27)
				)
				(hide yes)
			)
		)
		(property "ki_keywords" "IGBT Power Module Trench Field Stop Technology"
			(at 0 0 0)
			(effects
				(font
					(size 1.27 1.27)
				)
				(hide yes)
			)
		)
		(property "ki_fp_filters" "Infineon*EasyPIM*2B*"
			(at 0 0 0)
			(effects
				(font
					(size 1.27 1.27)
				)
				(hide yes)
			)
		)
	)
	(symbol "FP25R12W2T4P"
		(extends "A2C25S12M3")
		(property "Reference" "U"
			(at 0 30.48 0)
			(effects
				(font
					(size 1.27 1.27)
				)
			)
		)
		(property "Value" "FP25R12W2T4P"
			(at 0 27.94 0)
			(effects
				(font
					(size 1.27 1.27)
				)
			)
		)
		(property "Footprint" "Transistor_Power_Module:Infineon_EasyPIM-2B"
			(at 0 -27.94 0)
			(effects
				(font
					(size 1.27 1.27)
				)
				(hide yes)
			)
		)
		(property "Datasheet" "https://www.infineon.com/dgdl/Infineon-FP25R12W2T4P-DS-v03_00-EN.pdf?fileId=5546d4625bd71aa0015bfbc806e571fc"
			(at 0 -30.48 0)
			(effects
				(font
					(size 1.27 1.27)
				)
				(hide yes)
			)
		)
		(property "Description" "25A, 1200V, 175W, 3-phase, Freewheeling Diode, Brake Chopper, Diode Rectifier, 5k NTC, TIM, EasyPIM-2B"
			(at 0 0 0)
			(effects
				(font
					(size 1.27 1.27)
				)
				(hide yes)
			)
		)
		(property "ki_keywords" "IGBT Power Module Trench Field Stop Technology"
			(at 0 0 0)
			(effects
				(font
					(size 1.27 1.27)
				)
				(hide yes)
			)
		)
		(property "ki_fp_filters" "Infineon*EasyPIM*2B*"
			(at 0 0 0)
			(effects
				(font
					(size 1.27 1.27)
				)
				(hide yes)
			)
		)
	)
	(symbol "FP35R12W2T4"
		(extends "A2C25S12M3")
		(property "Reference" "U"
			(at 0 30.48 0)
			(effects
				(font
					(size 1.27 1.27)
				)
			)
		)
		(property "Value" "FP35R12W2T4"
			(at 0 27.94 0)
			(effects
				(font
					(size 1.27 1.27)
				)
			)
		)
		(property "Footprint" "Transistor_Power_Module:Infineon_EasyPIM-2B"
			(at 0 -27.94 0)
			(effects
				(font
					(size 1.27 1.27)
				)
				(hide yes)
			)
		)
		(property "Datasheet" "https://www.infineon.com/dgdl/Infineon-FP35R12W2T4-DS-v02_02-EN.pdf?fileId=db3a3043163797a6011638a0541501a0"
			(at 0 -30.48 0)
			(effects
				(font
					(size 1.27 1.27)
				)
				(hide yes)
			)
		)
		(property "Description" "35A, 1200V, 215W, 3-phase, Freewheeling Diode, Brake Chopper, Diode Rectifier, 5k NTC, EasyPIM-2B"
			(at 0 0 0)
			(effects
				(font
					(size 1.27 1.27)
				)
				(hide yes)
			)
		)
		(property "ki_keywords" "IGBT Power Module Trench Field Stop Technology"
			(at 0 0 0)
			(effects
				(font
					(size 1.27 1.27)
				)
				(hide yes)
			)
		)
		(property "ki_fp_filters" "Infineon*EasyPIM*2B*"
			(at 0 0 0)
			(effects
				(font
					(size 1.27 1.27)
				)
				(hide yes)
			)
		)
	)
	(symbol "FP35R12W2T4P"
		(extends "A2C25S12M3")
		(property "Reference" "U"
			(at 0 30.48 0)
			(effects
				(font
					(size 1.27 1.27)
				)
			)
		)
		(property "Value" "FP35R12W2T4P"
			(at 0 27.94 0)
			(effects
				(font
					(size 1.27 1.27)
				)
			)
		)
		(property "Footprint" "Transistor_Power_Module:Infineon_EasyPIM-2B"
			(at 0 -27.94 0)
			(effects
				(font
					(size 1.27 1.27)
				)
				(hide yes)
			)
		)
		(property "Datasheet" "https://www.infineon.com/dgdl/Infineon-FP35R12W2T4P-DS-v03_00-EN.pdf?fileId=5546d4625bd71aa0015bfbbf0d7a71f8"
			(at 0 -30.48 0)
			(effects
				(font
					(size 1.27 1.27)
				)
				(hide yes)
			)
		)
		(property "Description" "35A, 1200V, 215W, 3-phase, Freewheeling Diode, Brake Chopper, Diode Rectifier, 5k NTC, TIM, EasyPIM-2B"
			(at 0 0 0)
			(effects
				(font
					(size 1.27 1.27)
				)
				(hide yes)
			)
		)
		(property "ki_keywords" "IGBT Power Module Trench Field Stop Technology"
			(at 0 0 0)
			(effects
				(font
					(size 1.27 1.27)
				)
				(hide yes)
			)
		)
		(property "ki_fp_filters" "Infineon*EasyPIM*2B*"
			(at 0 0 0)
			(effects
				(font
					(size 1.27 1.27)
				)
				(hide yes)
			)
		)
	)
	(symbol "FP50R06W2E3"
		(extends "A2C25S12M3")
		(property "Reference" "U"
			(at 0 30.48 0)
			(effects
				(font
					(size 1.27 1.27)
				)
			)
		)
		(property "Value" "FP50R06W2E3"
			(at 0 27.94 0)
			(effects
				(font
					(size 1.27 1.27)
				)
			)
		)
		(property "Footprint" "Transistor_Power_Module:Infineon_EasyPIM-2B"
			(at 0 -27.94 0)
			(effects
				(font
					(size 1.27 1.27)
				)
				(hide yes)
			)
		)
		(property "Datasheet" "https://www.infineon.com/dgdl/Infineon-FP50R06W2E3-DS-v02_02-EN.pdf?fileId=db3a30431b3e89eb011b455c99987d24"
			(at 0 -30.48 0)
			(effects
				(font
					(size 1.27 1.27)
				)
				(hide yes)
			)
		)
		(property "Description" "50A, 600V, 175W, 3-phase, Freewheeling Diode, Brake Chopper, Diode Rectifier, 5k NTC, EasyPIM-2B"
			(at 0 0 0)
			(effects
				(font
					(size 1.27 1.27)
				)
				(hide yes)
			)
		)
		(property "ki_keywords" "IGBT Power Module Trench Field Stop Technology"
			(at 0 0 0)
			(effects
				(font
					(size 1.27 1.27)
				)
				(hide yes)
			)
		)
		(property "ki_fp_filters" "Infineon*EasyPIM*2B*"
			(at 0 0 0)
			(effects
				(font
					(size 1.27 1.27)
				)
				(hide yes)
			)
		)
	)
	(symbol "MG12100W-XN2MM"
		(extends "MG1275W-XN2MM")
		(property "Reference" "U"
			(at 0 27.94 0)
			(effects
				(font
					(size 1.27 1.27)
				)
			)
		)
		(property "Value" "MG12100W-XN2MM"
			(at 0 25.4 0)
			(effects
				(font
					(size 1.27 1.27)
				)
			)
		)
		(property "Footprint" "Transistor_Power_Module:Littelfuse_Package_W_XN2MM"
			(at 0 -25.4 0)
			(effects
				(font
					(size 1.27 1.27)
				)
				(hide yes)
			)
		)
		(property "Datasheet" "https://www.littelfuse.com/~/media/electronics/datasheets/power_semiconductors/littelfuse_power_semiconductor_igbt_module_mg12100w_xn2mm_datasheet.pdf.pdf"
			(at 0 -27.94 0)
			(effects
				(font
					(size 1.27 1.27)
				)
				(hide yes)
			)
		)
		(property "Description" "100A, 1200V, 450W x 6 , 3-phase, Freewheeling Diode, 5k NTC, Package-W (XN2MM)"
			(at 0 0 0)
			(effects
				(font
					(size 1.27 1.27)
				)
				(hide yes)
			)
		)
		(property "ki_keywords" "IGBT Power Module Trench Field Stop Technology"
			(at 0 0 0)
			(effects
				(font
					(size 1.27 1.27)
				)
				(hide yes)
			)
		)
		(property "ki_fp_filters" "Littelfuse*Package*W*XN2MM*"
			(at 0 0 0)
			(effects
				(font
					(size 1.27 1.27)
				)
				(hide yes)
			)
		)
	)
	(symbol "MG1225H-XBN2MM"
		(extends "MG1215H-XBN2MM")
		(property "Reference" "U"
			(at 0 30.48 0)
			(effects
				(font
					(size 1.27 1.27)
				)
			)
		)
		(property "Value" "MG1225H-XBN2MM"
			(at 0 27.94 0)
			(effects
				(font
					(size 1.27 1.27)
				)
			)
		)
		(property "Footprint" "Transistor_Power_Module:Littelfuse_Package_H_XBN2MM"
			(at 0 -27.94 0)
			(effects
				(font
					(size 1.27 1.27)
				)
				(hide yes)
			)
		)
		(property "Datasheet" "https://www.littelfuse.com/~/media/electronics/datasheets/power_semiconductors/littelfuse_power_semiconductor_igbt_module_mg1225h_xbn2mm_datasheet.pdf.pdf"
			(at 0 -30.48 0)
			(effects
				(font
					(size 1.27 1.27)
				)
				(hide yes)
			)
		)
		(property "Description" "25A, 1200V, 147W x 6 , 3-phase, Freewheeling Diode, Brake Chopper, Diode Rectifier, 5k NTC, Package-H (XBN2MM)"
			(at 0 0 0)
			(effects
				(font
					(size 1.27 1.27)
				)
				(hide yes)
			)
		)
		(property "ki_keywords" "IGBT Power Module Trench Field Stop Technology"
			(at 0 0 0)
			(effects
				(font
					(size 1.27 1.27)
				)
				(hide yes)
			)
		)
		(property "ki_fp_filters" "Littelfuse*Package*H*XBN2MM*"
			(at 0 0 0)
			(effects
				(font
					(size 1.27 1.27)
				)
				(hide yes)
			)
		)
	)
	(symbol "MG1225H-XN2MM"
		(extends "FS75R07N2E4")
		(property "Reference" "U"
			(at 0 25.4 0)
			(effects
				(font
					(size 1.27 1.27)
				)
			)
		)
		(property "Value" "MG1225H-XN2MM"
			(at 0 22.86 0)
			(effects
				(font
					(size 1.27 1.27)
				)
			)
		)
		(property "Footprint" "Transistor_Power_Module:Littelfuse_Package_H_XN2MM"
			(at 0 -27.94 0)
			(effects
				(font
					(size 1.27 1.27)
				)
				(hide yes)
			)
		)
		(property "Datasheet" "https://www.littelfuse.com/~/media/electronics/datasheets/power_semiconductors/littelfuse_power_semiconductor_igbt_module_mg1225h_xn2mm_datasheet.pdf.pdf"
			(at 0 -30.48 0)
			(effects
				(font
					(size 1.27 1.27)
				)
				(hide yes)
			)
		)
		(property "Description" "25A, 1200V, 147W x 6 , 3-phase, Freewheeling Diode, 5k NTC, Package-H (XN2MM)"
			(at 0 0 0)
			(effects
				(font
					(size 1.27 1.27)
				)
				(hide yes)
			)
		)
		(property "ki_keywords" "IGBT Power Module Trench Field Stop Technology"
			(at 0 0 0)
			(effects
				(font
					(size 1.27 1.27)
				)
				(hide yes)
			)
		)
		(property "ki_fp_filters" "Littelfuse*Package*H*XN2MM*"
			(at 0 0 0)
			(effects
				(font
					(size 1.27 1.27)
				)
				(hide yes)
			)
		)
	)
	(symbol "MG1240H-XBN2MM"
		(extends "MG1215H-XBN2MM")
		(property "Reference" "U"
			(at 0 30.48 0)
			(effects
				(font
					(size 1.27 1.27)
				)
			)
		)
		(property "Value" "MG1240H-XBN2MM"
			(at 0 27.94 0)
			(effects
				(font
					(size 1.27 1.27)
				)
			)
		)
		(property "Footprint" "Transistor_Power_Module:Littelfuse_Package_H_XBN2MM"
			(at 0 -27.94 0)
			(effects
				(font
					(size 1.27 1.27)
				)
				(hide yes)
			)
		)
		(property "Datasheet" "https://www.littelfuse.com/~/media/electronics/datasheets/power_semiconductors/littelfuse_power_semiconductor_igbt_module_mg1240h_xbn2mm_datasheet.pdf.pdf"
			(at 0 -30.48 0)
			(effects
				(font
					(size 1.27 1.27)
				)
				(hide yes)
			)
		)
		(property "Description" "40A, 1200V, 195W x 6 , 3-phase, Freewheeling Diode, Brake Chopper, Diode Rectifier, 5k NTC, Package-H (XBN2MM)"
			(at 0 0 0)
			(effects
				(font
					(size 1.27 1.27)
				)
				(hide yes)
			)
		)
		(property "ki_keywords" "IGBT Power Module Trench Field Stop Technology"
			(at 0 0 0)
			(effects
				(font
					(size 1.27 1.27)
				)
				(hide yes)
			)
		)
		(property "ki_fp_filters" "Littelfuse*Package*H*XBN2MM*"
			(at 0 0 0)
			(effects
				(font
					(size 1.27 1.27)
				)
				(hide yes)
			)
		)
	)
	(symbol "MG1250H-XN2MM"
		(extends "FS75R07N2E4")
		(property "Reference" "U"
			(at 0 25.4 0)
			(effects
				(font
					(size 1.27 1.27)
				)
			)
		)
		(property "Value" "MG1250H-XN2MM"
			(at 0 22.86 0)
			(effects
				(font
					(size 1.27 1.27)
				)
			)
		)
		(property "Footprint" "Transistor_Power_Module:Littelfuse_Package_H_XN2MM"
			(at 0 -27.94 0)
			(effects
				(font
					(size 1.27 1.27)
				)
				(hide yes)
			)
		)
		(property "Datasheet" "https://www.littelfuse.com/~/media/electronics/datasheets/power_semiconductors/littelfuse_power_semiconductor_igbt_module_mg1250h_xn2mm_datasheet.pdf.pdf"
			(at 0 -30.48 0)
			(effects
				(font
					(size 1.27 1.27)
				)
				(hide yes)
			)
		)
		(property "Description" "50A, 1200V, 260W x 6 , 3-phase, Freewheeling Diode, 5k NTC, Package-H (XN2MM)"
			(at 0 0 0)
			(effects
				(font
					(size 1.27 1.27)
				)
				(hide yes)
			)
		)
		(property "ki_keywords" "IGBT Power Module Trench Field Stop Technology"
			(at 0 0 0)
			(effects
				(font
					(size 1.27 1.27)
				)
				(hide yes)
			)
		)
		(property "ki_fp_filters" "Littelfuse*Package*H*XN2MM*"
			(at 0 0 0)
			(effects
				(font
					(size 1.27 1.27)
				)
				(hide yes)
			)
		)
	)
	(symbol "MG1250W-XBN2MM"
		(extends "MG1215H-XBN2MM")
		(property "Reference" "U"
			(at 0 30.48 0)
			(effects
				(font
					(size 1.27 1.27)
				)
			)
		)
		(property "Value" "MG1250W-XBN2MM"
			(at 0 27.94 0)
			(effects
				(font
					(size 1.27 1.27)
				)
			)
		)
		(property "Footprint" "Transistor_Power_Module:Littelfuse_Package_W_XBN2MM"
			(at 0 -27.94 0)
			(effects
				(font
					(size 1.27 1.27)
				)
				(hide yes)
			)
		)
		(property "Datasheet" "https://www.littelfuse.com/~/media/electronics/datasheets/power_semiconductors/littelfuse_power_semiconductor_igbt_module_mg1250w_xbn2mm_datasheet.pdf.pdf"
			(at 0 -30.48 0)
			(effects
				(font
					(size 1.27 1.27)
				)
				(hide yes)
			)
		)
		(property "Description" "50A, 1200V, 260W x 6 , 3-phase, Freewheeling Diode, Brake Chopper, Diode Rectifier, 5k NTC, Package-W (XBN2MM)"
			(at 0 0 0)
			(effects
				(font
					(size 1.27 1.27)
				)
				(hide yes)
			)
		)
		(property "ki_keywords" "IGBT Power Module Trench Field Stop Technology"
			(at 0 0 0)
			(effects
				(font
					(size 1.27 1.27)
				)
				(hide yes)
			)
		)
		(property "ki_fp_filters" "Littelfuse*Package*W*XBN2MM*"
			(at 0 0 0)
			(effects
				(font
					(size 1.27 1.27)
				)
				(hide yes)
			)
		)
	)
	(symbol "MG1275W-XBN2MM"
		(extends "MG1215H-XBN2MM")
		(property "Reference" "U"
			(at 0 30.48 0)
			(effects
				(font
					(size 1.27 1.27)
				)
			)
		)
		(property "Value" "MG1275W-XBN2MM"
			(at 0 27.94 0)
			(effects
				(font
					(size 1.27 1.27)
				)
			)
		)
		(property "Footprint" "Transistor_Power_Module:Littelfuse_Package_W_XBN2MM"
			(at 0 -27.94 0)
			(effects
				(font
					(size 1.27 1.27)
				)
				(hide yes)
			)
		)
		(property "Datasheet" "https://www.littelfuse.com/~/media/electronics/datasheets/power_semiconductors/littelfuse_power_semiconductor_igbt_module_mg1275w_xbn2mm_datasheet.pdf.pdf"
			(at 0 -30.48 0)
			(effects
				(font
					(size 1.27 1.27)
				)
				(hide yes)
			)
		)
		(property "Description" "75A, 1200V, 358W x 6 , 3-phase, Freewheeling Diode, Brake Chopper, Diode Rectifier, 5k NTC, Package-W (XBN2MM)"
			(at 0 0 0)
			(effects
				(font
					(size 1.27 1.27)
				)
				(hide yes)
			)
		)
		(property "ki_keywords" "IGBT Power Module Trench Field Stop Technology"
			(at 0 0 0)
			(effects
				(font
					(size 1.27 1.27)
				)
				(hide yes)
			)
		)
		(property "ki_fp_filters" "Littelfuse*Package*W*XBN2MM*"
			(at 0 0 0)
			(effects
				(font
					(size 1.27 1.27)
				)
				(hide yes)
			)
		)
	)
	(symbol "STGIPS10K60A2"
		(extends "STGIPS10K60A")
		(property "Reference" "U"
			(at 10.16 30.48 0)
			(effects
				(font
					(size 1.27 1.27)
				)
			)
		)
		(property "Value" "STGIPS10K60A2"
			(at 10.16 27.94 0)
			(effects
				(font
					(size 1.27 1.27)
				)
			)
		)
		(property "Footprint" "Transistor_Power_Module:ST_SDIP-25L"
			(at 0 -33.02 0)
			(effects
				(font
					(size 1.27 1.27)
				)
				(hide yes)
			)
		)
		(property "Datasheet" "https://www.st.com/resource/en/datasheet/stgips10k60a2.pdf"
			(at 0 -35.56 0)
			(effects
				(font
					(size 1.27 1.27)
				)
				(hide yes)
			)
		)
		(property "Description" "10 A, 600 V, 20KHz, 33Wx6, 3-phase, Control Logic, Positive Input , Freewheeling Diodes, Undervoltage Lockout, Interlocking, 4k7 NTC, SDIP-25L"
			(at 0 0 0)
			(effects
				(font
					(size 1.27 1.27)
				)
				(hide yes)
			)
		)
		(property "ki_keywords" "SLLIMM IPM inverter short-circuit rugged IGBT"
			(at 0 0 0)
			(effects
				(font
					(size 1.27 1.27)
				)
				(hide yes)
			)
		)
		(property "ki_fp_filters" "ST*SDIP*"
			(at 0 0 0)
			(effects
				(font
					(size 1.27 1.27)
				)
				(hide yes)
			)
		)
	)
	(symbol "STGIPS10K60T"
		(extends "STGIPS14K60T")
		(property "Reference" "U"
			(at 10.16 30.48 0)
			(effects
				(font
					(size 1.27 1.27)
				)
			)
		)
		(property "Value" "STGIPS10K60T"
			(at 10.16 27.94 0)
			(effects
				(font
					(size 1.27 1.27)
				)
			)
		)
		(property "Footprint" "Transistor_Power_Module:ST_SDIP-25L"
			(at 0 -33.02 0)
			(effects
				(font
					(size 1.27 1.27)
				)
				(hide yes)
			)
		)
		(property "Datasheet" "https://www.st.com/resource/en/datasheet/stgips10k60t.pdf"
			(at 0 -35.56 0)
			(effects
				(font
					(size 1.27 1.27)
				)
				(hide yes)
			)
		)
		(property "Description" "10 A, 600 V, 20KHz, 33Wx6, 3-phase, Control Logic, Negative Input , Freewheeling Diode, Undervoltage Lockout, Interlocking, Shut down (SD), 4k7 NTC, SDIP-25L"
			(at 0 0 0)
			(effects
				(font
					(size 1.27 1.27)
				)
				(hide yes)
			)
		)
		(property "ki_keywords" "SLLIMM IPM inverter short-circuit rugged IGBT"
			(at 0 0 0)
			(effects
				(font
					(size 1.27 1.27)
				)
				(hide yes)
			)
		)
		(property "ki_fp_filters" "ST*SDIP*"
			(at 0 0 0)
			(effects
				(font
					(size 1.27 1.27)
				)
				(hide yes)
			)
		)
	)
	(symbol "STGIPS14K60"
		(extends "STGIPS20K60")
		(property "Reference" "U"
			(at 10.16 30.48 0)
			(effects
				(font
					(size 1.27 1.27)
				)
			)
		)
		(property "Value" "STGIPS14K60"
			(at 10.16 27.94 0)
			(effects
				(font
					(size 1.27 1.27)
				)
			)
		)
		(property "Footprint" "Transistor_Power_Module:ST_SDIP-25L"
			(at 0 -33.02 0)
			(effects
				(font
					(size 1.27 1.27)
				)
				(hide yes)
			)
		)
		(property "Datasheet" "https://www.st.com/resource/en/datasheet/stgips14k60.pdf"
			(at 0 -35.56 0)
			(effects
				(font
					(size 1.27 1.27)
				)
				(hide yes)
			)
		)
		(property "Description" "14 A, 600 V, 20KHz, 42Wx6, 3-phase, Control Logic, Negative Input , Freewheeling Diode, Undervoltage Lockout, Interlocking, Shut down (SD), Comparator, SDIP-25L"
			(at 0 0 0)
			(effects
				(font
					(size 1.27 1.27)
				)
				(hide yes)
			)
		)
		(property "ki_keywords" "SLLIMM IPM inverter short-circuit rugged IGBT"
			(at 0 0 0)
			(effects
				(font
					(size 1.27 1.27)
				)
				(hide yes)
			)
		)
		(property "ki_fp_filters" "ST*SDIP*"
			(at 0 0 0)
			(effects
				(font
					(size 1.27 1.27)
				)
				(hide yes)
			)
		)
	)
)